(kicad_sch (version 20210621) (generator eeschema)

  (uuid 045a3577-3a85-4bd5-8ff6-a5604bbf440d)

  (paper "A4")

  (title_block
    (rev "1.1")
  )

  (lib_symbols
    (symbol "Connector:Conn_01x05_Female" (pin_names (offset 1.016) hide) (in_bom yes) (on_board yes)
      (property "Reference" "J" (id 0) (at 0 7.62 0)
        (effects (font (size 1.27 1.27)))
      )
      (property "Value" "Conn_01x05_Female" (id 1) (at 0 -7.62 0)
        (effects (font (size 1.27 1.27)))
      )
      (property "Footprint" "" (id 2) (at 0 0 0)
        (effects (font (size 1.27 1.27)) hide)
      )
      (property "Datasheet" "~" (id 3) (at 0 0 0)
        (effects (font (size 1.27 1.27)) hide)
      )
      (property "ki_keywords" "connector" (id 4) (at 0 0 0)
        (effects (font (size 1.27 1.27)) hide)
      )
      (property "ki_description" "Generic connector, single row, 01x05, script generated (kicad-library-utils/schlib/autogen/connector/)" (id 5) (at 0 0 0)
        (effects (font (size 1.27 1.27)) hide)
      )
      (property "ki_fp_filters" "Connector*:*_1x??_*" (id 6) (at 0 0 0)
        (effects (font (size 1.27 1.27)) hide)
      )
      (symbol "Conn_01x05_Female_1_1"
        (arc (start 0 -4.572) (end 0 -5.588) (radius (at 0 -5.08) (length 0.508) (angles 90.1 -90.1))
          (stroke (width 0.1524)) (fill (type none))
        )
        (arc (start 0 -2.032) (end 0 -3.048) (radius (at 0 -2.54) (length 0.508) (angles 90.1 -90.1))
          (stroke (width 0.1524)) (fill (type none))
        )
        (arc (start 0 0.508) (end 0 -0.508) (radius (at 0 0) (length 0.508) (angles 90.1 -90.1))
          (stroke (width 0.1524)) (fill (type none))
        )
        (arc (start 0 3.048) (end 0 2.032) (radius (at 0 2.54) (length 0.508) (angles 90.1 -90.1))
          (stroke (width 0.1524)) (fill (type none))
        )
        (arc (start 0 5.588) (end 0 4.572) (radius (at 0 5.08) (length 0.508) (angles 90.1 -90.1))
          (stroke (width 0.1524)) (fill (type none))
        )
        (polyline
          (pts
            (xy -1.27 -5.08)
            (xy -0.508 -5.08)
          )
          (stroke (width 0.1524)) (fill (type none))
        )
        (polyline
          (pts
            (xy -1.27 -2.54)
            (xy -0.508 -2.54)
          )
          (stroke (width 0.1524)) (fill (type none))
        )
        (polyline
          (pts
            (xy -1.27 0)
            (xy -0.508 0)
          )
          (stroke (width 0.1524)) (fill (type none))
        )
        (polyline
          (pts
            (xy -1.27 2.54)
            (xy -0.508 2.54)
          )
          (stroke (width 0.1524)) (fill (type none))
        )
        (polyline
          (pts
            (xy -1.27 5.08)
            (xy -0.508 5.08)
          )
          (stroke (width 0.1524)) (fill (type none))
        )
        (pin passive line (at -5.08 5.08 0) (length 3.81)
          (name "Pin_1" (effects (font (size 1.27 1.27))))
          (number "1" (effects (font (size 1.27 1.27))))
        )
        (pin passive line (at -5.08 2.54 0) (length 3.81)
          (name "Pin_2" (effects (font (size 1.27 1.27))))
          (number "2" (effects (font (size 1.27 1.27))))
        )
        (pin passive line (at -5.08 0 0) (length 3.81)
          (name "Pin_3" (effects (font (size 1.27 1.27))))
          (number "3" (effects (font (size 1.27 1.27))))
        )
        (pin passive line (at -5.08 -2.54 0) (length 3.81)
          (name "Pin_4" (effects (font (size 1.27 1.27))))
          (number "4" (effects (font (size 1.27 1.27))))
        )
        (pin passive line (at -5.08 -5.08 0) (length 3.81)
          (name "Pin_5" (effects (font (size 1.27 1.27))))
          (number "5" (effects (font (size 1.27 1.27))))
        )
      )
    )
    (symbol "Connector:Conn_01x05_Male" (pin_names (offset 1.016) hide) (in_bom yes) (on_board yes)
      (property "Reference" "J" (id 0) (at 0 7.62 0)
        (effects (font (size 1.27 1.27)))
      )
      (property "Value" "Conn_01x05_Male" (id 1) (at 0 -7.62 0)
        (effects (font (size 1.27 1.27)))
      )
      (property "Footprint" "" (id 2) (at 0 0 0)
        (effects (font (size 1.27 1.27)) hide)
      )
      (property "Datasheet" "~" (id 3) (at 0 0 0)
        (effects (font (size 1.27 1.27)) hide)
      )
      (property "ki_keywords" "connector" (id 4) (at 0 0 0)
        (effects (font (size 1.27 1.27)) hide)
      )
      (property "ki_description" "Generic connector, single row, 01x05, script generated (kicad-library-utils/schlib/autogen/connector/)" (id 5) (at 0 0 0)
        (effects (font (size 1.27 1.27)) hide)
      )
      (property "ki_fp_filters" "Connector*:*_1x??_*" (id 6) (at 0 0 0)
        (effects (font (size 1.27 1.27)) hide)
      )
      (symbol "Conn_01x05_Male_1_1"
        (rectangle (start 0.8636 -4.953) (end 0 -5.207)
          (stroke (width 0.1524)) (fill (type outline))
        )
        (rectangle (start 0.8636 -2.413) (end 0 -2.667)
          (stroke (width 0.1524)) (fill (type outline))
        )
        (rectangle (start 0.8636 0.127) (end 0 -0.127)
          (stroke (width 0.1524)) (fill (type outline))
        )
        (rectangle (start 0.8636 2.667) (end 0 2.413)
          (stroke (width 0.1524)) (fill (type outline))
        )
        (rectangle (start 0.8636 5.207) (end 0 4.953)
          (stroke (width 0.1524)) (fill (type outline))
        )
        (polyline
          (pts
            (xy 1.27 -5.08)
            (xy 0.8636 -5.08)
          )
          (stroke (width 0.1524)) (fill (type none))
        )
        (polyline
          (pts
            (xy 1.27 -2.54)
            (xy 0.8636 -2.54)
          )
          (stroke (width 0.1524)) (fill (type none))
        )
        (polyline
          (pts
            (xy 1.27 0)
            (xy 0.8636 0)
          )
          (stroke (width 0.1524)) (fill (type none))
        )
        (polyline
          (pts
            (xy 1.27 2.54)
            (xy 0.8636 2.54)
          )
          (stroke (width 0.1524)) (fill (type none))
        )
        (polyline
          (pts
            (xy 1.27 5.08)
            (xy 0.8636 5.08)
          )
          (stroke (width 0.1524)) (fill (type none))
        )
        (pin passive line (at 5.08 5.08 180) (length 3.81)
          (name "Pin_1" (effects (font (size 1.27 1.27))))
          (number "1" (effects (font (size 1.27 1.27))))
        )
        (pin passive line (at 5.08 2.54 180) (length 3.81)
          (name "Pin_2" (effects (font (size 1.27 1.27))))
          (number "2" (effects (font (size 1.27 1.27))))
        )
        (pin passive line (at 5.08 0 180) (length 3.81)
          (name "Pin_3" (effects (font (size 1.27 1.27))))
          (number "3" (effects (font (size 1.27 1.27))))
        )
        (pin passive line (at 5.08 -2.54 180) (length 3.81)
          (name "Pin_4" (effects (font (size 1.27 1.27))))
          (number "4" (effects (font (size 1.27 1.27))))
        )
        (pin passive line (at 5.08 -5.08 180) (length 3.81)
          (name "Pin_5" (effects (font (size 1.27 1.27))))
          (number "5" (effects (font (size 1.27 1.27))))
        )
      )
    )
    (symbol "Connector:Conn_01x06_Female" (pin_names (offset 1.016) hide) (in_bom yes) (on_board yes)
      (property "Reference" "J" (id 0) (at 0 7.62 0)
        (effects (font (size 1.27 1.27)))
      )
      (property "Value" "Conn_01x06_Female" (id 1) (at 0 -10.16 0)
        (effects (font (size 1.27 1.27)))
      )
      (property "Footprint" "" (id 2) (at 0 0 0)
        (effects (font (size 1.27 1.27)) hide)
      )
      (property "Datasheet" "~" (id 3) (at 0 0 0)
        (effects (font (size 1.27 1.27)) hide)
      )
      (property "ki_keywords" "connector" (id 4) (at 0 0 0)
        (effects (font (size 1.27 1.27)) hide)
      )
      (property "ki_description" "Generic connector, single row, 01x06, script generated (kicad-library-utils/schlib/autogen/connector/)" (id 5) (at 0 0 0)
        (effects (font (size 1.27 1.27)) hide)
      )
      (property "ki_fp_filters" "Connector*:*_1x??_*" (id 6) (at 0 0 0)
        (effects (font (size 1.27 1.27)) hide)
      )
      (symbol "Conn_01x06_Female_1_1"
        (arc (start 0 -7.112) (end 0 -8.128) (radius (at 0 -7.62) (length 0.508) (angles 90.1 -90.1))
          (stroke (width 0.1524)) (fill (type none))
        )
        (arc (start 0 -4.572) (end 0 -5.588) (radius (at 0 -5.08) (length 0.508) (angles 90.1 -90.1))
          (stroke (width 0.1524)) (fill (type none))
        )
        (arc (start 0 -2.032) (end 0 -3.048) (radius (at 0 -2.54) (length 0.508) (angles 90.1 -90.1))
          (stroke (width 0.1524)) (fill (type none))
        )
        (arc (start 0 0.508) (end 0 -0.508) (radius (at 0 0) (length 0.508) (angles 90.1 -90.1))
          (stroke (width 0.1524)) (fill (type none))
        )
        (arc (start 0 3.048) (end 0 2.032) (radius (at 0 2.54) (length 0.508) (angles 90.1 -90.1))
          (stroke (width 0.1524)) (fill (type none))
        )
        (arc (start 0 5.588) (end 0 4.572) (radius (at 0 5.08) (length 0.508) (angles 90.1 -90.1))
          (stroke (width 0.1524)) (fill (type none))
        )
        (polyline
          (pts
            (xy -1.27 -7.62)
            (xy -0.508 -7.62)
          )
          (stroke (width 0.1524)) (fill (type none))
        )
        (polyline
          (pts
            (xy -1.27 -5.08)
            (xy -0.508 -5.08)
          )
          (stroke (width 0.1524)) (fill (type none))
        )
        (polyline
          (pts
            (xy -1.27 -2.54)
            (xy -0.508 -2.54)
          )
          (stroke (width 0.1524)) (fill (type none))
        )
        (polyline
          (pts
            (xy -1.27 0)
            (xy -0.508 0)
          )
          (stroke (width 0.1524)) (fill (type none))
        )
        (polyline
          (pts
            (xy -1.27 2.54)
            (xy -0.508 2.54)
          )
          (stroke (width 0.1524)) (fill (type none))
        )
        (polyline
          (pts
            (xy -1.27 5.08)
            (xy -0.508 5.08)
          )
          (stroke (width 0.1524)) (fill (type none))
        )
        (pin passive line (at -5.08 5.08 0) (length 3.81)
          (name "Pin_1" (effects (font (size 1.27 1.27))))
          (number "1" (effects (font (size 1.27 1.27))))
        )
        (pin passive line (at -5.08 2.54 0) (length 3.81)
          (name "Pin_2" (effects (font (size 1.27 1.27))))
          (number "2" (effects (font (size 1.27 1.27))))
        )
        (pin passive line (at -5.08 0 0) (length 3.81)
          (name "Pin_3" (effects (font (size 1.27 1.27))))
          (number "3" (effects (font (size 1.27 1.27))))
        )
        (pin passive line (at -5.08 -2.54 0) (length 3.81)
          (name "Pin_4" (effects (font (size 1.27 1.27))))
          (number "4" (effects (font (size 1.27 1.27))))
        )
        (pin passive line (at -5.08 -5.08 0) (length 3.81)
          (name "Pin_5" (effects (font (size 1.27 1.27))))
          (number "5" (effects (font (size 1.27 1.27))))
        )
        (pin passive line (at -5.08 -7.62 0) (length 3.81)
          (name "Pin_6" (effects (font (size 1.27 1.27))))
          (number "6" (effects (font (size 1.27 1.27))))
        )
      )
    )
    (symbol "Connector:Conn_01x06_Male" (pin_names (offset 1.016) hide) (in_bom yes) (on_board yes)
      (property "Reference" "J" (id 0) (at 0 7.62 0)
        (effects (font (size 1.27 1.27)))
      )
      (property "Value" "Conn_01x06_Male" (id 1) (at 0 -10.16 0)
        (effects (font (size 1.27 1.27)))
      )
      (property "Footprint" "" (id 2) (at 0 0 0)
        (effects (font (size 1.27 1.27)) hide)
      )
      (property "Datasheet" "~" (id 3) (at 0 0 0)
        (effects (font (size 1.27 1.27)) hide)
      )
      (property "ki_keywords" "connector" (id 4) (at 0 0 0)
        (effects (font (size 1.27 1.27)) hide)
      )
      (property "ki_description" "Generic connector, single row, 01x06, script generated (kicad-library-utils/schlib/autogen/connector/)" (id 5) (at 0 0 0)
        (effects (font (size 1.27 1.27)) hide)
      )
      (property "ki_fp_filters" "Connector*:*_1x??_*" (id 6) (at 0 0 0)
        (effects (font (size 1.27 1.27)) hide)
      )
      (symbol "Conn_01x06_Male_1_1"
        (rectangle (start 0.8636 -7.493) (end 0 -7.747)
          (stroke (width 0.1524)) (fill (type outline))
        )
        (rectangle (start 0.8636 -4.953) (end 0 -5.207)
          (stroke (width 0.1524)) (fill (type outline))
        )
        (rectangle (start 0.8636 -2.413) (end 0 -2.667)
          (stroke (width 0.1524)) (fill (type outline))
        )
        (rectangle (start 0.8636 0.127) (end 0 -0.127)
          (stroke (width 0.1524)) (fill (type outline))
        )
        (rectangle (start 0.8636 2.667) (end 0 2.413)
          (stroke (width 0.1524)) (fill (type outline))
        )
        (rectangle (start 0.8636 5.207) (end 0 4.953)
          (stroke (width 0.1524)) (fill (type outline))
        )
        (polyline
          (pts
            (xy 1.27 -7.62)
            (xy 0.8636 -7.62)
          )
          (stroke (width 0.1524)) (fill (type none))
        )
        (polyline
          (pts
            (xy 1.27 -5.08)
            (xy 0.8636 -5.08)
          )
          (stroke (width 0.1524)) (fill (type none))
        )
        (polyline
          (pts
            (xy 1.27 -2.54)
            (xy 0.8636 -2.54)
          )
          (stroke (width 0.1524)) (fill (type none))
        )
        (polyline
          (pts
            (xy 1.27 0)
            (xy 0.8636 0)
          )
          (stroke (width 0.1524)) (fill (type none))
        )
        (polyline
          (pts
            (xy 1.27 2.54)
            (xy 0.8636 2.54)
          )
          (stroke (width 0.1524)) (fill (type none))
        )
        (polyline
          (pts
            (xy 1.27 5.08)
            (xy 0.8636 5.08)
          )
          (stroke (width 0.1524)) (fill (type none))
        )
        (pin passive line (at 5.08 5.08 180) (length 3.81)
          (name "Pin_1" (effects (font (size 1.27 1.27))))
          (number "1" (effects (font (size 1.27 1.27))))
        )
        (pin passive line (at 5.08 2.54 180) (length 3.81)
          (name "Pin_2" (effects (font (size 1.27 1.27))))
          (number "2" (effects (font (size 1.27 1.27))))
        )
        (pin passive line (at 5.08 0 180) (length 3.81)
          (name "Pin_3" (effects (font (size 1.27 1.27))))
          (number "3" (effects (font (size 1.27 1.27))))
        )
        (pin passive line (at 5.08 -2.54 180) (length 3.81)
          (name "Pin_4" (effects (font (size 1.27 1.27))))
          (number "4" (effects (font (size 1.27 1.27))))
        )
        (pin passive line (at 5.08 -5.08 180) (length 3.81)
          (name "Pin_5" (effects (font (size 1.27 1.27))))
          (number "5" (effects (font (size 1.27 1.27))))
        )
        (pin passive line (at 5.08 -7.62 180) (length 3.81)
          (name "Pin_6" (effects (font (size 1.27 1.27))))
          (number "6" (effects (font (size 1.27 1.27))))
        )
      )
    )
    (symbol "Connector:Conn_01x08_Female" (pin_names (offset 1.016) hide) (in_bom yes) (on_board yes)
      (property "Reference" "J" (id 0) (at 0 10.16 0)
        (effects (font (size 1.27 1.27)))
      )
      (property "Value" "Conn_01x08_Female" (id 1) (at 0 -12.7 0)
        (effects (font (size 1.27 1.27)))
      )
      (property "Footprint" "" (id 2) (at 0 0 0)
        (effects (font (size 1.27 1.27)) hide)
      )
      (property "Datasheet" "~" (id 3) (at 0 0 0)
        (effects (font (size 1.27 1.27)) hide)
      )
      (property "ki_keywords" "connector" (id 4) (at 0 0 0)
        (effects (font (size 1.27 1.27)) hide)
      )
      (property "ki_description" "Generic connector, single row, 01x08, script generated (kicad-library-utils/schlib/autogen/connector/)" (id 5) (at 0 0 0)
        (effects (font (size 1.27 1.27)) hide)
      )
      (property "ki_fp_filters" "Connector*:*_1x??_*" (id 6) (at 0 0 0)
        (effects (font (size 1.27 1.27)) hide)
      )
      (symbol "Conn_01x08_Female_1_1"
        (arc (start 0 -9.652) (end 0 -10.668) (radius (at 0 -10.16) (length 0.508) (angles 90.1 -90.1))
          (stroke (width 0.1524)) (fill (type none))
        )
        (arc (start 0 -7.112) (end 0 -8.128) (radius (at 0 -7.62) (length 0.508) (angles 90.1 -90.1))
          (stroke (width 0.1524)) (fill (type none))
        )
        (arc (start 0 -4.572) (end 0 -5.588) (radius (at 0 -5.08) (length 0.508) (angles 90.1 -90.1))
          (stroke (width 0.1524)) (fill (type none))
        )
        (arc (start 0 -2.032) (end 0 -3.048) (radius (at 0 -2.54) (length 0.508) (angles 90.1 -90.1))
          (stroke (width 0.1524)) (fill (type none))
        )
        (arc (start 0 0.508) (end 0 -0.508) (radius (at 0 0) (length 0.508) (angles 90.1 -90.1))
          (stroke (width 0.1524)) (fill (type none))
        )
        (arc (start 0 3.048) (end 0 2.032) (radius (at 0 2.54) (length 0.508) (angles 90.1 -90.1))
          (stroke (width 0.1524)) (fill (type none))
        )
        (arc (start 0 5.588) (end 0 4.572) (radius (at 0 5.08) (length 0.508) (angles 90.1 -90.1))
          (stroke (width 0.1524)) (fill (type none))
        )
        (arc (start 0 8.128) (end 0 7.112) (radius (at 0 7.62) (length 0.508) (angles 90.1 -90.1))
          (stroke (width 0.1524)) (fill (type none))
        )
        (polyline
          (pts
            (xy -1.27 -10.16)
            (xy -0.508 -10.16)
          )
          (stroke (width 0.1524)) (fill (type none))
        )
        (polyline
          (pts
            (xy -1.27 -7.62)
            (xy -0.508 -7.62)
          )
          (stroke (width 0.1524)) (fill (type none))
        )
        (polyline
          (pts
            (xy -1.27 -5.08)
            (xy -0.508 -5.08)
          )
          (stroke (width 0.1524)) (fill (type none))
        )
        (polyline
          (pts
            (xy -1.27 -2.54)
            (xy -0.508 -2.54)
          )
          (stroke (width 0.1524)) (fill (type none))
        )
        (polyline
          (pts
            (xy -1.27 0)
            (xy -0.508 0)
          )
          (stroke (width 0.1524)) (fill (type none))
        )
        (polyline
          (pts
            (xy -1.27 2.54)
            (xy -0.508 2.54)
          )
          (stroke (width 0.1524)) (fill (type none))
        )
        (polyline
          (pts
            (xy -1.27 5.08)
            (xy -0.508 5.08)
          )
          (stroke (width 0.1524)) (fill (type none))
        )
        (polyline
          (pts
            (xy -1.27 7.62)
            (xy -0.508 7.62)
          )
          (stroke (width 0.1524)) (fill (type none))
        )
        (pin passive line (at -5.08 7.62 0) (length 3.81)
          (name "Pin_1" (effects (font (size 1.27 1.27))))
          (number "1" (effects (font (size 1.27 1.27))))
        )
        (pin passive line (at -5.08 5.08 0) (length 3.81)
          (name "Pin_2" (effects (font (size 1.27 1.27))))
          (number "2" (effects (font (size 1.27 1.27))))
        )
        (pin passive line (at -5.08 2.54 0) (length 3.81)
          (name "Pin_3" (effects (font (size 1.27 1.27))))
          (number "3" (effects (font (size 1.27 1.27))))
        )
        (pin passive line (at -5.08 0 0) (length 3.81)
          (name "Pin_4" (effects (font (size 1.27 1.27))))
          (number "4" (effects (font (size 1.27 1.27))))
        )
        (pin passive line (at -5.08 -2.54 0) (length 3.81)
          (name "Pin_5" (effects (font (size 1.27 1.27))))
          (number "5" (effects (font (size 1.27 1.27))))
        )
        (pin passive line (at -5.08 -5.08 0) (length 3.81)
          (name "Pin_6" (effects (font (size 1.27 1.27))))
          (number "6" (effects (font (size 1.27 1.27))))
        )
        (pin passive line (at -5.08 -7.62 0) (length 3.81)
          (name "Pin_7" (effects (font (size 1.27 1.27))))
          (number "7" (effects (font (size 1.27 1.27))))
        )
        (pin passive line (at -5.08 -10.16 0) (length 3.81)
          (name "Pin_8" (effects (font (size 1.27 1.27))))
          (number "8" (effects (font (size 1.27 1.27))))
        )
      )
    )
    (symbol "Connector:Conn_01x08_Male" (pin_names (offset 1.016) hide) (in_bom yes) (on_board yes)
      (property "Reference" "J" (id 0) (at 0 10.16 0)
        (effects (font (size 1.27 1.27)))
      )
      (property "Value" "Conn_01x08_Male" (id 1) (at 0 -12.7 0)
        (effects (font (size 1.27 1.27)))
      )
      (property "Footprint" "" (id 2) (at 0 0 0)
        (effects (font (size 1.27 1.27)) hide)
      )
      (property "Datasheet" "~" (id 3) (at 0 0 0)
        (effects (font (size 1.27 1.27)) hide)
      )
      (property "ki_keywords" "connector" (id 4) (at 0 0 0)
        (effects (font (size 1.27 1.27)) hide)
      )
      (property "ki_description" "Generic connector, single row, 01x08, script generated (kicad-library-utils/schlib/autogen/connector/)" (id 5) (at 0 0 0)
        (effects (font (size 1.27 1.27)) hide)
      )
      (property "ki_fp_filters" "Connector*:*_1x??_*" (id 6) (at 0 0 0)
        (effects (font (size 1.27 1.27)) hide)
      )
      (symbol "Conn_01x08_Male_1_1"
        (rectangle (start 0.8636 -10.033) (end 0 -10.287)
          (stroke (width 0.1524)) (fill (type outline))
        )
        (rectangle (start 0.8636 -7.493) (end 0 -7.747)
          (stroke (width 0.1524)) (fill (type outline))
        )
        (rectangle (start 0.8636 -4.953) (end 0 -5.207)
          (stroke (width 0.1524)) (fill (type outline))
        )
        (rectangle (start 0.8636 -2.413) (end 0 -2.667)
          (stroke (width 0.1524)) (fill (type outline))
        )
        (rectangle (start 0.8636 0.127) (end 0 -0.127)
          (stroke (width 0.1524)) (fill (type outline))
        )
        (rectangle (start 0.8636 2.667) (end 0 2.413)
          (stroke (width 0.1524)) (fill (type outline))
        )
        (rectangle (start 0.8636 5.207) (end 0 4.953)
          (stroke (width 0.1524)) (fill (type outline))
        )
        (rectangle (start 0.8636 7.747) (end 0 7.493)
          (stroke (width 0.1524)) (fill (type outline))
        )
        (polyline
          (pts
            (xy 1.27 -10.16)
            (xy 0.8636 -10.16)
          )
          (stroke (width 0.1524)) (fill (type none))
        )
        (polyline
          (pts
            (xy 1.27 -7.62)
            (xy 0.8636 -7.62)
          )
          (stroke (width 0.1524)) (fill (type none))
        )
        (polyline
          (pts
            (xy 1.27 -5.08)
            (xy 0.8636 -5.08)
          )
          (stroke (width 0.1524)) (fill (type none))
        )
        (polyline
          (pts
            (xy 1.27 -2.54)
            (xy 0.8636 -2.54)
          )
          (stroke (width 0.1524)) (fill (type none))
        )
        (polyline
          (pts
            (xy 1.27 0)
            (xy 0.8636 0)
          )
          (stroke (width 0.1524)) (fill (type none))
        )
        (polyline
          (pts
            (xy 1.27 2.54)
            (xy 0.8636 2.54)
          )
          (stroke (width 0.1524)) (fill (type none))
        )
        (polyline
          (pts
            (xy 1.27 5.08)
            (xy 0.8636 5.08)
          )
          (stroke (width 0.1524)) (fill (type none))
        )
        (polyline
          (pts
            (xy 1.27 7.62)
            (xy 0.8636 7.62)
          )
          (stroke (width 0.1524)) (fill (type none))
        )
        (pin passive line (at 5.08 7.62 180) (length 3.81)
          (name "Pin_1" (effects (font (size 1.27 1.27))))
          (number "1" (effects (font (size 1.27 1.27))))
        )
        (pin passive line (at 5.08 5.08 180) (length 3.81)
          (name "Pin_2" (effects (font (size 1.27 1.27))))
          (number "2" (effects (font (size 1.27 1.27))))
        )
        (pin passive line (at 5.08 2.54 180) (length 3.81)
          (name "Pin_3" (effects (font (size 1.27 1.27))))
          (number "3" (effects (font (size 1.27 1.27))))
        )
        (pin passive line (at 5.08 0 180) (length 3.81)
          (name "Pin_4" (effects (font (size 1.27 1.27))))
          (number "4" (effects (font (size 1.27 1.27))))
        )
        (pin passive line (at 5.08 -2.54 180) (length 3.81)
          (name "Pin_5" (effects (font (size 1.27 1.27))))
          (number "5" (effects (font (size 1.27 1.27))))
        )
        (pin passive line (at 5.08 -5.08 180) (length 3.81)
          (name "Pin_6" (effects (font (size 1.27 1.27))))
          (number "6" (effects (font (size 1.27 1.27))))
        )
        (pin passive line (at 5.08 -7.62 180) (length 3.81)
          (name "Pin_7" (effects (font (size 1.27 1.27))))
          (number "7" (effects (font (size 1.27 1.27))))
        )
        (pin passive line (at 5.08 -10.16 180) (length 3.81)
          (name "Pin_8" (effects (font (size 1.27 1.27))))
          (number "8" (effects (font (size 1.27 1.27))))
        )
      )
    )
    (symbol "Connector:Conn_01x24_Female" (pin_names (offset 1.016) hide) (in_bom yes) (on_board yes)
      (property "Reference" "J" (id 0) (at 0 30.48 0)
        (effects (font (size 1.27 1.27)))
      )
      (property "Value" "Conn_01x24_Female" (id 1) (at 0 -33.02 0)
        (effects (font (size 1.27 1.27)))
      )
      (property "Footprint" "" (id 2) (at 0 0 0)
        (effects (font (size 1.27 1.27)) hide)
      )
      (property "Datasheet" "~" (id 3) (at 0 0 0)
        (effects (font (size 1.27 1.27)) hide)
      )
      (property "ki_keywords" "connector" (id 4) (at 0 0 0)
        (effects (font (size 1.27 1.27)) hide)
      )
      (property "ki_description" "Generic connector, single row, 01x24, script generated (kicad-library-utils/schlib/autogen/connector/)" (id 5) (at 0 0 0)
        (effects (font (size 1.27 1.27)) hide)
      )
      (property "ki_fp_filters" "Connector*:*_1x??_*" (id 6) (at 0 0 0)
        (effects (font (size 1.27 1.27)) hide)
      )
      (symbol "Conn_01x24_Female_1_1"
        (arc (start 0 -29.972) (end 0 -30.988) (radius (at 0 -30.48) (length 0.508) (angles 90.1 -90.1))
          (stroke (width 0.1524)) (fill (type none))
        )
        (arc (start 0 -27.432) (end 0 -28.448) (radius (at 0 -27.94) (length 0.508) (angles 90.1 -90.1))
          (stroke (width 0.1524)) (fill (type none))
        )
        (arc (start 0 -24.892) (end 0 -25.908) (radius (at 0 -25.4) (length 0.508) (angles 90.1 -90.1))
          (stroke (width 0.1524)) (fill (type none))
        )
        (arc (start 0 -22.352) (end 0 -23.368) (radius (at 0 -22.86) (length 0.508) (angles 90.1 -90.1))
          (stroke (width 0.1524)) (fill (type none))
        )
        (arc (start 0 -19.812) (end 0 -20.828) (radius (at 0 -20.32) (length 0.508) (angles 90.1 -90.1))
          (stroke (width 0.1524)) (fill (type none))
        )
        (arc (start 0 -17.272) (end 0 -18.288) (radius (at 0 -17.78) (length 0.508) (angles 90.1 -90.1))
          (stroke (width 0.1524)) (fill (type none))
        )
        (arc (start 0 -14.732) (end 0 -15.748) (radius (at 0 -15.24) (length 0.508) (angles 90.1 -90.1))
          (stroke (width 0.1524)) (fill (type none))
        )
        (arc (start 0 -12.192) (end 0 -13.208) (radius (at 0 -12.7) (length 0.508) (angles 90.1 -90.1))
          (stroke (width 0.1524)) (fill (type none))
        )
        (arc (start 0 -9.652) (end 0 -10.668) (radius (at 0 -10.16) (length 0.508) (angles 90.1 -90.1))
          (stroke (width 0.1524)) (fill (type none))
        )
        (arc (start 0 -7.112) (end 0 -8.128) (radius (at 0 -7.62) (length 0.508) (angles 90.1 -90.1))
          (stroke (width 0.1524)) (fill (type none))
        )
        (arc (start 0 -4.572) (end 0 -5.588) (radius (at 0 -5.08) (length 0.508) (angles 90.1 -90.1))
          (stroke (width 0.1524)) (fill (type none))
        )
        (arc (start 0 -2.032) (end 0 -3.048) (radius (at 0 -2.54) (length 0.508) (angles 90.1 -90.1))
          (stroke (width 0.1524)) (fill (type none))
        )
        (arc (start 0 0.508) (end 0 -0.508) (radius (at 0 0) (length 0.508) (angles 90.1 -90.1))
          (stroke (width 0.1524)) (fill (type none))
        )
        (arc (start 0 3.048) (end 0 2.032) (radius (at 0 2.54) (length 0.508) (angles 90.1 -90.1))
          (stroke (width 0.1524)) (fill (type none))
        )
        (arc (start 0 5.588) (end 0 4.572) (radius (at 0 5.08) (length 0.508) (angles 90.1 -90.1))
          (stroke (width 0.1524)) (fill (type none))
        )
        (arc (start 0 8.128) (end 0 7.112) (radius (at 0 7.62) (length 0.508) (angles 90.1 -90.1))
          (stroke (width 0.1524)) (fill (type none))
        )
        (arc (start 0 10.668) (end 0 9.652) (radius (at 0 10.16) (length 0.508) (angles 90.1 -90.1))
          (stroke (width 0.1524)) (fill (type none))
        )
        (arc (start 0 13.208) (end 0 12.192) (radius (at 0 12.7) (length 0.508) (angles 90.1 -90.1))
          (stroke (width 0.1524)) (fill (type none))
        )
        (arc (start 0 15.748) (end 0 14.732) (radius (at 0 15.24) (length 0.508) (angles 90.1 -90.1))
          (stroke (width 0.1524)) (fill (type none))
        )
        (arc (start 0 18.288) (end 0 17.272) (radius (at 0 17.78) (length 0.508) (angles 90.1 -90.1))
          (stroke (width 0.1524)) (fill (type none))
        )
        (arc (start 0 20.828) (end 0 19.812) (radius (at 0 20.32) (length 0.508) (angles 90.1 -90.1))
          (stroke (width 0.1524)) (fill (type none))
        )
        (arc (start 0 23.368) (end 0 22.352) (radius (at 0 22.86) (length 0.508) (angles 90.1 -90.1))
          (stroke (width 0.1524)) (fill (type none))
        )
        (arc (start 0 25.908) (end 0 24.892) (radius (at 0 25.4) (length 0.508) (angles 90.1 -90.1))
          (stroke (width 0.1524)) (fill (type none))
        )
        (arc (start 0 28.448) (end 0 27.432) (radius (at 0 27.94) (length 0.508) (angles 90.1 -90.1))
          (stroke (width 0.1524)) (fill (type none))
        )
        (polyline
          (pts
            (xy -1.27 -30.48)
            (xy -0.508 -30.48)
          )
          (stroke (width 0.1524)) (fill (type none))
        )
        (polyline
          (pts
            (xy -1.27 -27.94)
            (xy -0.508 -27.94)
          )
          (stroke (width 0.1524)) (fill (type none))
        )
        (polyline
          (pts
            (xy -1.27 -25.4)
            (xy -0.508 -25.4)
          )
          (stroke (width 0.1524)) (fill (type none))
        )
        (polyline
          (pts
            (xy -1.27 -22.86)
            (xy -0.508 -22.86)
          )
          (stroke (width 0.1524)) (fill (type none))
        )
        (polyline
          (pts
            (xy -1.27 -20.32)
            (xy -0.508 -20.32)
          )
          (stroke (width 0.1524)) (fill (type none))
        )
        (polyline
          (pts
            (xy -1.27 -17.78)
            (xy -0.508 -17.78)
          )
          (stroke (width 0.1524)) (fill (type none))
        )
        (polyline
          (pts
            (xy -1.27 -15.24)
            (xy -0.508 -15.24)
          )
          (stroke (width 0.1524)) (fill (type none))
        )
        (polyline
          (pts
            (xy -1.27 -12.7)
            (xy -0.508 -12.7)
          )
          (stroke (width 0.1524)) (fill (type none))
        )
        (polyline
          (pts
            (xy -1.27 -10.16)
            (xy -0.508 -10.16)
          )
          (stroke (width 0.1524)) (fill (type none))
        )
        (polyline
          (pts
            (xy -1.27 -7.62)
            (xy -0.508 -7.62)
          )
          (stroke (width 0.1524)) (fill (type none))
        )
        (polyline
          (pts
            (xy -1.27 -5.08)
            (xy -0.508 -5.08)
          )
          (stroke (width 0.1524)) (fill (type none))
        )
        (polyline
          (pts
            (xy -1.27 -2.54)
            (xy -0.508 -2.54)
          )
          (stroke (width 0.1524)) (fill (type none))
        )
        (polyline
          (pts
            (xy -1.27 0)
            (xy -0.508 0)
          )
          (stroke (width 0.1524)) (fill (type none))
        )
        (polyline
          (pts
            (xy -1.27 2.54)
            (xy -0.508 2.54)
          )
          (stroke (width 0.1524)) (fill (type none))
        )
        (polyline
          (pts
            (xy -1.27 5.08)
            (xy -0.508 5.08)
          )
          (stroke (width 0.1524)) (fill (type none))
        )
        (polyline
          (pts
            (xy -1.27 7.62)
            (xy -0.508 7.62)
          )
          (stroke (width 0.1524)) (fill (type none))
        )
        (polyline
          (pts
            (xy -1.27 10.16)
            (xy -0.508 10.16)
          )
          (stroke (width 0.1524)) (fill (type none))
        )
        (polyline
          (pts
            (xy -1.27 12.7)
            (xy -0.508 12.7)
          )
          (stroke (width 0.1524)) (fill (type none))
        )
        (polyline
          (pts
            (xy -1.27 15.24)
            (xy -0.508 15.24)
          )
          (stroke (width 0.1524)) (fill (type none))
        )
        (polyline
          (pts
            (xy -1.27 17.78)
            (xy -0.508 17.78)
          )
          (stroke (width 0.1524)) (fill (type none))
        )
        (polyline
          (pts
            (xy -1.27 20.32)
            (xy -0.508 20.32)
          )
          (stroke (width 0.1524)) (fill (type none))
        )
        (polyline
          (pts
            (xy -1.27 22.86)
            (xy -0.508 22.86)
          )
          (stroke (width 0.1524)) (fill (type none))
        )
        (polyline
          (pts
            (xy -1.27 25.4)
            (xy -0.508 25.4)
          )
          (stroke (width 0.1524)) (fill (type none))
        )
        (polyline
          (pts
            (xy -1.27 27.94)
            (xy -0.508 27.94)
          )
          (stroke (width 0.1524)) (fill (type none))
        )
        (pin passive line (at -5.08 27.94 0) (length 3.81)
          (name "Pin_1" (effects (font (size 1.27 1.27))))
          (number "1" (effects (font (size 1.27 1.27))))
        )
        (pin passive line (at -5.08 5.08 0) (length 3.81)
          (name "Pin_10" (effects (font (size 1.27 1.27))))
          (number "10" (effects (font (size 1.27 1.27))))
        )
        (pin passive line (at -5.08 2.54 0) (length 3.81)
          (name "Pin_11" (effects (font (size 1.27 1.27))))
          (number "11" (effects (font (size 1.27 1.27))))
        )
        (pin passive line (at -5.08 0 0) (length 3.81)
          (name "Pin_12" (effects (font (size 1.27 1.27))))
          (number "12" (effects (font (size 1.27 1.27))))
        )
        (pin passive line (at -5.08 -2.54 0) (length 3.81)
          (name "Pin_13" (effects (font (size 1.27 1.27))))
          (number "13" (effects (font (size 1.27 1.27))))
        )
        (pin passive line (at -5.08 -5.08 0) (length 3.81)
          (name "Pin_14" (effects (font (size 1.27 1.27))))
          (number "14" (effects (font (size 1.27 1.27))))
        )
        (pin passive line (at -5.08 -7.62 0) (length 3.81)
          (name "Pin_15" (effects (font (size 1.27 1.27))))
          (number "15" (effects (font (size 1.27 1.27))))
        )
        (pin passive line (at -5.08 -10.16 0) (length 3.81)
          (name "Pin_16" (effects (font (size 1.27 1.27))))
          (number "16" (effects (font (size 1.27 1.27))))
        )
        (pin passive line (at -5.08 -12.7 0) (length 3.81)
          (name "Pin_17" (effects (font (size 1.27 1.27))))
          (number "17" (effects (font (size 1.27 1.27))))
        )
        (pin passive line (at -5.08 -15.24 0) (length 3.81)
          (name "Pin_18" (effects (font (size 1.27 1.27))))
          (number "18" (effects (font (size 1.27 1.27))))
        )
        (pin passive line (at -5.08 -17.78 0) (length 3.81)
          (name "Pin_19" (effects (font (size 1.27 1.27))))
          (number "19" (effects (font (size 1.27 1.27))))
        )
        (pin passive line (at -5.08 25.4 0) (length 3.81)
          (name "Pin_2" (effects (font (size 1.27 1.27))))
          (number "2" (effects (font (size 1.27 1.27))))
        )
        (pin passive line (at -5.08 -20.32 0) (length 3.81)
          (name "Pin_20" (effects (font (size 1.27 1.27))))
          (number "20" (effects (font (size 1.27 1.27))))
        )
        (pin passive line (at -5.08 -22.86 0) (length 3.81)
          (name "Pin_21" (effects (font (size 1.27 1.27))))
          (number "21" (effects (font (size 1.27 1.27))))
        )
        (pin passive line (at -5.08 -25.4 0) (length 3.81)
          (name "Pin_22" (effects (font (size 1.27 1.27))))
          (number "22" (effects (font (size 1.27 1.27))))
        )
        (pin passive line (at -5.08 -27.94 0) (length 3.81)
          (name "Pin_23" (effects (font (size 1.27 1.27))))
          (number "23" (effects (font (size 1.27 1.27))))
        )
        (pin passive line (at -5.08 -30.48 0) (length 3.81)
          (name "Pin_24" (effects (font (size 1.27 1.27))))
          (number "24" (effects (font (size 1.27 1.27))))
        )
        (pin passive line (at -5.08 22.86 0) (length 3.81)
          (name "Pin_3" (effects (font (size 1.27 1.27))))
          (number "3" (effects (font (size 1.27 1.27))))
        )
        (pin passive line (at -5.08 20.32 0) (length 3.81)
          (name "Pin_4" (effects (font (size 1.27 1.27))))
          (number "4" (effects (font (size 1.27 1.27))))
        )
        (pin passive line (at -5.08 17.78 0) (length 3.81)
          (name "Pin_5" (effects (font (size 1.27 1.27))))
          (number "5" (effects (font (size 1.27 1.27))))
        )
        (pin passive line (at -5.08 15.24 0) (length 3.81)
          (name "Pin_6" (effects (font (size 1.27 1.27))))
          (number "6" (effects (font (size 1.27 1.27))))
        )
        (pin passive line (at -5.08 12.7 0) (length 3.81)
          (name "Pin_7" (effects (font (size 1.27 1.27))))
          (number "7" (effects (font (size 1.27 1.27))))
        )
        (pin passive line (at -5.08 10.16 0) (length 3.81)
          (name "Pin_8" (effects (font (size 1.27 1.27))))
          (number "8" (effects (font (size 1.27 1.27))))
        )
        (pin passive line (at -5.08 7.62 0) (length 3.81)
          (name "Pin_9" (effects (font (size 1.27 1.27))))
          (number "9" (effects (font (size 1.27 1.27))))
        )
      )
    )
    (symbol "Connector:Conn_01x24_Male" (pin_names (offset 1.016) hide) (in_bom yes) (on_board yes)
      (property "Reference" "J" (id 0) (at 0 30.48 0)
        (effects (font (size 1.27 1.27)))
      )
      (property "Value" "Conn_01x24_Male" (id 1) (at 0 -33.02 0)
        (effects (font (size 1.27 1.27)))
      )
      (property "Footprint" "" (id 2) (at 0 0 0)
        (effects (font (size 1.27 1.27)) hide)
      )
      (property "Datasheet" "~" (id 3) (at 0 0 0)
        (effects (font (size 1.27 1.27)) hide)
      )
      (property "ki_keywords" "connector" (id 4) (at 0 0 0)
        (effects (font (size 1.27 1.27)) hide)
      )
      (property "ki_description" "Generic connector, single row, 01x24, script generated (kicad-library-utils/schlib/autogen/connector/)" (id 5) (at 0 0 0)
        (effects (font (size 1.27 1.27)) hide)
      )
      (property "ki_fp_filters" "Connector*:*_1x??_*" (id 6) (at 0 0 0)
        (effects (font (size 1.27 1.27)) hide)
      )
      (symbol "Conn_01x24_Male_1_1"
        (rectangle (start 0.8636 -30.353) (end 0 -30.607)
          (stroke (width 0.1524)) (fill (type outline))
        )
        (rectangle (start 0.8636 -27.813) (end 0 -28.067)
          (stroke (width 0.1524)) (fill (type outline))
        )
        (rectangle (start 0.8636 -25.273) (end 0 -25.527)
          (stroke (width 0.1524)) (fill (type outline))
        )
        (rectangle (start 0.8636 -22.733) (end 0 -22.987)
          (stroke (width 0.1524)) (fill (type outline))
        )
        (rectangle (start 0.8636 -20.193) (end 0 -20.447)
          (stroke (width 0.1524)) (fill (type outline))
        )
        (rectangle (start 0.8636 -17.653) (end 0 -17.907)
          (stroke (width 0.1524)) (fill (type outline))
        )
        (rectangle (start 0.8636 -15.113) (end 0 -15.367)
          (stroke (width 0.1524)) (fill (type outline))
        )
        (rectangle (start 0.8636 -12.573) (end 0 -12.827)
          (stroke (width 0.1524)) (fill (type outline))
        )
        (rectangle (start 0.8636 -10.033) (end 0 -10.287)
          (stroke (width 0.1524)) (fill (type outline))
        )
        (rectangle (start 0.8636 -7.493) (end 0 -7.747)
          (stroke (width 0.1524)) (fill (type outline))
        )
        (rectangle (start 0.8636 -4.953) (end 0 -5.207)
          (stroke (width 0.1524)) (fill (type outline))
        )
        (rectangle (start 0.8636 -2.413) (end 0 -2.667)
          (stroke (width 0.1524)) (fill (type outline))
        )
        (rectangle (start 0.8636 0.127) (end 0 -0.127)
          (stroke (width 0.1524)) (fill (type outline))
        )
        (rectangle (start 0.8636 2.667) (end 0 2.413)
          (stroke (width 0.1524)) (fill (type outline))
        )
        (rectangle (start 0.8636 5.207) (end 0 4.953)
          (stroke (width 0.1524)) (fill (type outline))
        )
        (rectangle (start 0.8636 7.747) (end 0 7.493)
          (stroke (width 0.1524)) (fill (type outline))
        )
        (rectangle (start 0.8636 10.287) (end 0 10.033)
          (stroke (width 0.1524)) (fill (type outline))
        )
        (rectangle (start 0.8636 12.827) (end 0 12.573)
          (stroke (width 0.1524)) (fill (type outline))
        )
        (rectangle (start 0.8636 15.367) (end 0 15.113)
          (stroke (width 0.1524)) (fill (type outline))
        )
        (rectangle (start 0.8636 17.907) (end 0 17.653)
          (stroke (width 0.1524)) (fill (type outline))
        )
        (rectangle (start 0.8636 20.447) (end 0 20.193)
          (stroke (width 0.1524)) (fill (type outline))
        )
        (rectangle (start 0.8636 22.987) (end 0 22.733)
          (stroke (width 0.1524)) (fill (type outline))
        )
        (rectangle (start 0.8636 25.527) (end 0 25.273)
          (stroke (width 0.1524)) (fill (type outline))
        )
        (rectangle (start 0.8636 28.067) (end 0 27.813)
          (stroke (width 0.1524)) (fill (type outline))
        )
        (polyline
          (pts
            (xy 1.27 -30.48)
            (xy 0.8636 -30.48)
          )
          (stroke (width 0.1524)) (fill (type none))
        )
        (polyline
          (pts
            (xy 1.27 -27.94)
            (xy 0.8636 -27.94)
          )
          (stroke (width 0.1524)) (fill (type none))
        )
        (polyline
          (pts
            (xy 1.27 -25.4)
            (xy 0.8636 -25.4)
          )
          (stroke (width 0.1524)) (fill (type none))
        )
        (polyline
          (pts
            (xy 1.27 -22.86)
            (xy 0.8636 -22.86)
          )
          (stroke (width 0.1524)) (fill (type none))
        )
        (polyline
          (pts
            (xy 1.27 -20.32)
            (xy 0.8636 -20.32)
          )
          (stroke (width 0.1524)) (fill (type none))
        )
        (polyline
          (pts
            (xy 1.27 -17.78)
            (xy 0.8636 -17.78)
          )
          (stroke (width 0.1524)) (fill (type none))
        )
        (polyline
          (pts
            (xy 1.27 -15.24)
            (xy 0.8636 -15.24)
          )
          (stroke (width 0.1524)) (fill (type none))
        )
        (polyline
          (pts
            (xy 1.27 -12.7)
            (xy 0.8636 -12.7)
          )
          (stroke (width 0.1524)) (fill (type none))
        )
        (polyline
          (pts
            (xy 1.27 -10.16)
            (xy 0.8636 -10.16)
          )
          (stroke (width 0.1524)) (fill (type none))
        )
        (polyline
          (pts
            (xy 1.27 -7.62)
            (xy 0.8636 -7.62)
          )
          (stroke (width 0.1524)) (fill (type none))
        )
        (polyline
          (pts
            (xy 1.27 -5.08)
            (xy 0.8636 -5.08)
          )
          (stroke (width 0.1524)) (fill (type none))
        )
        (polyline
          (pts
            (xy 1.27 -2.54)
            (xy 0.8636 -2.54)
          )
          (stroke (width 0.1524)) (fill (type none))
        )
        (polyline
          (pts
            (xy 1.27 0)
            (xy 0.8636 0)
          )
          (stroke (width 0.1524)) (fill (type none))
        )
        (polyline
          (pts
            (xy 1.27 2.54)
            (xy 0.8636 2.54)
          )
          (stroke (width 0.1524)) (fill (type none))
        )
        (polyline
          (pts
            (xy 1.27 5.08)
            (xy 0.8636 5.08)
          )
          (stroke (width 0.1524)) (fill (type none))
        )
        (polyline
          (pts
            (xy 1.27 7.62)
            (xy 0.8636 7.62)
          )
          (stroke (width 0.1524)) (fill (type none))
        )
        (polyline
          (pts
            (xy 1.27 10.16)
            (xy 0.8636 10.16)
          )
          (stroke (width 0.1524)) (fill (type none))
        )
        (polyline
          (pts
            (xy 1.27 12.7)
            (xy 0.8636 12.7)
          )
          (stroke (width 0.1524)) (fill (type none))
        )
        (polyline
          (pts
            (xy 1.27 15.24)
            (xy 0.8636 15.24)
          )
          (stroke (width 0.1524)) (fill (type none))
        )
        (polyline
          (pts
            (xy 1.27 17.78)
            (xy 0.8636 17.78)
          )
          (stroke (width 0.1524)) (fill (type none))
        )
        (polyline
          (pts
            (xy 1.27 20.32)
            (xy 0.8636 20.32)
          )
          (stroke (width 0.1524)) (fill (type none))
        )
        (polyline
          (pts
            (xy 1.27 22.86)
            (xy 0.8636 22.86)
          )
          (stroke (width 0.1524)) (fill (type none))
        )
        (polyline
          (pts
            (xy 1.27 25.4)
            (xy 0.8636 25.4)
          )
          (stroke (width 0.1524)) (fill (type none))
        )
        (polyline
          (pts
            (xy 1.27 27.94)
            (xy 0.8636 27.94)
          )
          (stroke (width 0.1524)) (fill (type none))
        )
        (pin passive line (at 5.08 27.94 180) (length 3.81)
          (name "Pin_1" (effects (font (size 1.27 1.27))))
          (number "1" (effects (font (size 1.27 1.27))))
        )
        (pin passive line (at 5.08 5.08 180) (length 3.81)
          (name "Pin_10" (effects (font (size 1.27 1.27))))
          (number "10" (effects (font (size 1.27 1.27))))
        )
        (pin passive line (at 5.08 2.54 180) (length 3.81)
          (name "Pin_11" (effects (font (size 1.27 1.27))))
          (number "11" (effects (font (size 1.27 1.27))))
        )
        (pin passive line (at 5.08 0 180) (length 3.81)
          (name "Pin_12" (effects (font (size 1.27 1.27))))
          (number "12" (effects (font (size 1.27 1.27))))
        )
        (pin passive line (at 5.08 -2.54 180) (length 3.81)
          (name "Pin_13" (effects (font (size 1.27 1.27))))
          (number "13" (effects (font (size 1.27 1.27))))
        )
        (pin passive line (at 5.08 -5.08 180) (length 3.81)
          (name "Pin_14" (effects (font (size 1.27 1.27))))
          (number "14" (effects (font (size 1.27 1.27))))
        )
        (pin passive line (at 5.08 -7.62 180) (length 3.81)
          (name "Pin_15" (effects (font (size 1.27 1.27))))
          (number "15" (effects (font (size 1.27 1.27))))
        )
        (pin passive line (at 5.08 -10.16 180) (length 3.81)
          (name "Pin_16" (effects (font (size 1.27 1.27))))
          (number "16" (effects (font (size 1.27 1.27))))
        )
        (pin passive line (at 5.08 -12.7 180) (length 3.81)
          (name "Pin_17" (effects (font (size 1.27 1.27))))
          (number "17" (effects (font (size 1.27 1.27))))
        )
        (pin passive line (at 5.08 -15.24 180) (length 3.81)
          (name "Pin_18" (effects (font (size 1.27 1.27))))
          (number "18" (effects (font (size 1.27 1.27))))
        )
        (pin passive line (at 5.08 -17.78 180) (length 3.81)
          (name "Pin_19" (effects (font (size 1.27 1.27))))
          (number "19" (effects (font (size 1.27 1.27))))
        )
        (pin passive line (at 5.08 25.4 180) (length 3.81)
          (name "Pin_2" (effects (font (size 1.27 1.27))))
          (number "2" (effects (font (size 1.27 1.27))))
        )
        (pin passive line (at 5.08 -20.32 180) (length 3.81)
          (name "Pin_20" (effects (font (size 1.27 1.27))))
          (number "20" (effects (font (size 1.27 1.27))))
        )
        (pin passive line (at 5.08 -22.86 180) (length 3.81)
          (name "Pin_21" (effects (font (size 1.27 1.27))))
          (number "21" (effects (font (size 1.27 1.27))))
        )
        (pin passive line (at 5.08 -25.4 180) (length 3.81)
          (name "Pin_22" (effects (font (size 1.27 1.27))))
          (number "22" (effects (font (size 1.27 1.27))))
        )
        (pin passive line (at 5.08 -27.94 180) (length 3.81)
          (name "Pin_23" (effects (font (size 1.27 1.27))))
          (number "23" (effects (font (size 1.27 1.27))))
        )
        (pin passive line (at 5.08 -30.48 180) (length 3.81)
          (name "Pin_24" (effects (font (size 1.27 1.27))))
          (number "24" (effects (font (size 1.27 1.27))))
        )
        (pin passive line (at 5.08 22.86 180) (length 3.81)
          (name "Pin_3" (effects (font (size 1.27 1.27))))
          (number "3" (effects (font (size 1.27 1.27))))
        )
        (pin passive line (at 5.08 20.32 180) (length 3.81)
          (name "Pin_4" (effects (font (size 1.27 1.27))))
          (number "4" (effects (font (size 1.27 1.27))))
        )
        (pin passive line (at 5.08 17.78 180) (length 3.81)
          (name "Pin_5" (effects (font (size 1.27 1.27))))
          (number "5" (effects (font (size 1.27 1.27))))
        )
        (pin passive line (at 5.08 15.24 180) (length 3.81)
          (name "Pin_6" (effects (font (size 1.27 1.27))))
          (number "6" (effects (font (size 1.27 1.27))))
        )
        (pin passive line (at 5.08 12.7 180) (length 3.81)
          (name "Pin_7" (effects (font (size 1.27 1.27))))
          (number "7" (effects (font (size 1.27 1.27))))
        )
        (pin passive line (at 5.08 10.16 180) (length 3.81)
          (name "Pin_8" (effects (font (size 1.27 1.27))))
          (number "8" (effects (font (size 1.27 1.27))))
        )
        (pin passive line (at 5.08 7.62 180) (length 3.81)
          (name "Pin_9" (effects (font (size 1.27 1.27))))
          (number "9" (effects (font (size 1.27 1.27))))
        )
      )
    )
  )


  (no_connect (at 59.69 63.5) (uuid bd59fa11-53e9-40f6-8ace-1902690bca1d))
  (no_connect (at 59.69 66.04) (uuid e505d78a-81d8-46b1-b791-4fad64d8ccff))
  (no_connect (at 59.69 68.58) (uuid 0893d6a1-4138-4503-9945-a85798f1d412))
  (no_connect (at 59.69 71.12) (uuid c2841a84-914a-47d9-af72-99ee1d157d64))
  (no_connect (at 59.69 73.66) (uuid 1cceaf1e-71d8-4f06-9993-e83d095f8619))
  (no_connect (at 59.69 76.2) (uuid 78b24f66-91e5-4f6f-a60f-b03ced02a8d6))
  (no_connect (at 59.69 97.79) (uuid 2797f5b2-d745-42b9-851b-a59a079dff2e))
  (no_connect (at 59.69 100.33) (uuid 4d860329-6f7b-4af7-901f-563429ebe7b4))
  (no_connect (at 59.69 102.87) (uuid 819de354-11fd-42d2-a625-d324590bcf51))
  (no_connect (at 59.69 105.41) (uuid 567b4737-2916-4de3-a6ba-2cb009ae2ba0))
  (no_connect (at 59.69 107.95) (uuid febf7c13-4995-4b51-bc13-3b7762b72d08))
  (no_connect (at 59.69 110.49) (uuid a2286927-2b94-4f23-a8fd-af8198e9ea19))
  (no_connect (at 80.01 63.5) (uuid 0b6c1b75-32b2-4a95-895b-6653e867c451))
  (no_connect (at 80.01 66.04) (uuid 5544b26d-c0c6-4d60-8ece-f0a77ce96dc5))
  (no_connect (at 80.01 68.58) (uuid 53a64817-bf51-48b7-bb37-b6be1a063c38))
  (no_connect (at 80.01 71.12) (uuid ccecd7b2-7028-425f-9f16-eb2f370ad877))
  (no_connect (at 80.01 73.66) (uuid 35234630-6d96-4936-89b2-09494dffd430))
  (no_connect (at 80.01 76.2) (uuid 36a47cfe-b2f9-4787-a431-891b25556f33))
  (no_connect (at 80.01 97.79) (uuid 68e6c675-2ddd-47c8-9b2f-bb7b3e2574af))
  (no_connect (at 80.01 100.33) (uuid 4e8ade9b-264e-4520-a7f9-ed1be21cdf6c))
  (no_connect (at 80.01 102.87) (uuid 0732a2bd-aeea-4780-a892-e37cae4b73d4))
  (no_connect (at 80.01 105.41) (uuid dce58908-b02a-40f9-9c33-018d7d4fd7a6))
  (no_connect (at 80.01 107.95) (uuid fd66c397-ec31-4074-8776-145166ebc692))
  (no_connect (at 80.01 110.49) (uuid 7c052f75-4700-4dda-b628-c8a6d31d34f1))
  (no_connect (at 114.3 63.5) (uuid 22bb232f-96cb-42e4-b94b-8df29abe40a3))
  (no_connect (at 114.3 66.04) (uuid 9178ef06-da71-4db6-8ec7-78b2759f07c9))
  (no_connect (at 114.3 68.58) (uuid 3847b127-8231-450f-80e1-acc817f674d5))
  (no_connect (at 114.3 71.12) (uuid 3d7c0311-1f24-443f-ab17-79c265afb628))
  (no_connect (at 114.3 73.66) (uuid 8f701026-fc23-46a6-b8a9-ec866c2f2198))
  (no_connect (at 114.3 76.2) (uuid fb56f959-a426-4318-bcfa-e84292b46051))
  (no_connect (at 114.3 78.74) (uuid ae45ffc8-f74e-4213-9529-880c25cce822))
  (no_connect (at 114.3 81.28) (uuid 21f439f0-ff9e-4b39-8095-6b6cbd0cc1f0))
  (no_connect (at 114.3 83.82) (uuid 62fda7bb-a88a-424b-b1c6-a071bf870835))
  (no_connect (at 114.3 86.36) (uuid c39d54a3-c875-4054-8629-7ca692ce7c53))
  (no_connect (at 114.3 88.9) (uuid dbd96b9b-9aae-41ac-95e4-13a324857127))
  (no_connect (at 114.3 91.44) (uuid 7c995629-2e01-4ef6-92c7-5fb9f1021760))
  (no_connect (at 114.3 93.98) (uuid 8f96d867-9dde-42a8-ac0a-c16b2b8ee45b))
  (no_connect (at 114.3 96.52) (uuid 2c2c8ef6-7f46-4fb1-8a32-044df780a300))
  (no_connect (at 114.3 99.06) (uuid ebc382c6-b295-4b8d-95b9-08790321a969))
  (no_connect (at 114.3 101.6) (uuid 966cf7d4-dfa2-4099-b78d-650939ff5db3))
  (no_connect (at 114.3 104.14) (uuid c6fe7bce-548b-450f-8987-e87f0a5eae6d))
  (no_connect (at 114.3 106.68) (uuid d2534727-9448-4504-b24e-bde83455d3ef))
  (no_connect (at 114.3 109.22) (uuid 21d21e5a-5385-49e9-b768-61c96ae8865c))
  (no_connect (at 114.3 111.76) (uuid e7e2c97b-4497-4328-9e18-de9d95b24168))
  (no_connect (at 114.3 114.3) (uuid 026ab11f-9cf3-40c3-b469-1b1096cd2327))
  (no_connect (at 114.3 116.84) (uuid 100c0e2b-6919-453d-82d2-e7ca25560e47))
  (no_connect (at 114.3 119.38) (uuid 62aa11d1-99a8-4187-a129-7390d1d8438c))
  (no_connect (at 114.3 121.92) (uuid c4546a52-971d-4083-af1a-09908a7ac416))
  (no_connect (at 125.73 63.5) (uuid a73ba01b-8d4e-43f7-becd-0920ab80e5b2))
  (no_connect (at 125.73 66.04) (uuid 65953544-78c8-4435-aa29-e716df90ae26))
  (no_connect (at 125.73 68.58) (uuid a0c3a101-41c5-45c5-8a7e-46ce7f459666))
  (no_connect (at 125.73 71.12) (uuid 666ea1d6-0b99-4788-b844-376e360f9479))
  (no_connect (at 125.73 73.66) (uuid f7438c06-fc98-4b9c-aedc-734e37641ea3))
  (no_connect (at 125.73 76.2) (uuid 1b6a2449-674c-466a-9fea-619359113d1c))
  (no_connect (at 125.73 78.74) (uuid e94f6b7e-dc67-4889-9a76-6b1a1f107153))
  (no_connect (at 125.73 81.28) (uuid 559ee1a5-762c-460f-8d72-d28ceb6371fb))
  (no_connect (at 125.73 83.82) (uuid 4980672a-8c0c-4113-9c79-d89070e3936e))
  (no_connect (at 125.73 86.36) (uuid 9968650c-b841-468a-9a27-e481dd7e30ad))
  (no_connect (at 125.73 88.9) (uuid a127617b-ed05-4c21-9c27-e32a984ada9a))
  (no_connect (at 125.73 91.44) (uuid 307c5a36-e32c-4fa4-8b4a-427a741c6087))
  (no_connect (at 125.73 93.98) (uuid bdbf5c57-a8aa-4068-9c2e-73eea2126fbc))
  (no_connect (at 125.73 96.52) (uuid 4e7fa721-a997-4fbc-bdad-5e6c38fc6f68))
  (no_connect (at 125.73 99.06) (uuid c692f6ce-0ec6-4089-b5cf-7773d92d5cfd))
  (no_connect (at 125.73 101.6) (uuid b6b776a1-cc36-446a-a272-566e791e6494))
  (no_connect (at 125.73 104.14) (uuid 47fb236d-ba0e-4255-b416-bf9bf8b08c0c))
  (no_connect (at 125.73 106.68) (uuid 9a8659cc-87e0-4b6a-9a5c-dcdb7bd44335))
  (no_connect (at 125.73 109.22) (uuid ccd2ff5f-603a-4a6e-83ab-8e6df911c59e))
  (no_connect (at 125.73 111.76) (uuid 4d9a6175-ceaf-415a-b283-fa470fc8d1c4))
  (no_connect (at 125.73 114.3) (uuid 5b29e8e6-445b-46ef-8b83-3dcc9816f42f))
  (no_connect (at 125.73 116.84) (uuid b482ade8-b60e-46ca-a5da-710cf240db92))
  (no_connect (at 125.73 119.38) (uuid e0934a70-9f11-4535-86f6-17b79cf7fa29))
  (no_connect (at 125.73 121.92) (uuid 1fcf2379-56f2-44dd-b1da-266fcab08560))
  (no_connect (at 147.32 73.66) (uuid f79e8fea-8c94-4698-94a6-cbaffa266463))
  (no_connect (at 147.32 76.2) (uuid af275d4a-b2ce-47ab-bd4a-a5ab256fa52b))
  (no_connect (at 147.32 78.74) (uuid f7a5d4e3-18a6-49e3-a08a-8aa84a71633f))
  (no_connect (at 147.32 81.28) (uuid 4fa85278-e9dc-426e-9b38-88ec9da46b5b))
  (no_connect (at 147.32 83.82) (uuid 5209da97-1dcc-44d0-a308-8055ec066279))
  (no_connect (at 151.13 113.03) (uuid e83afc62-621c-4a7b-9583-cded21f0afba))
  (no_connect (at 151.13 132.08) (uuid f79e8fea-8c94-4698-94a6-cbaffa266463))
  (no_connect (at 153.67 113.03) (uuid f79e8fea-8c94-4698-94a6-cbaffa266463))
  (no_connect (at 153.67 132.08) (uuid f79e8fea-8c94-4698-94a6-cbaffa266463))
  (no_connect (at 156.21 113.03) (uuid f79e8fea-8c94-4698-94a6-cbaffa266463))
  (no_connect (at 156.21 132.08) (uuid f79e8fea-8c94-4698-94a6-cbaffa266463))
  (no_connect (at 158.75 113.03) (uuid f79e8fea-8c94-4698-94a6-cbaffa266463))
  (no_connect (at 158.75 132.08) (uuid f79e8fea-8c94-4698-94a6-cbaffa266463))
  (no_connect (at 161.29 113.03) (uuid f79e8fea-8c94-4698-94a6-cbaffa266463))
  (no_connect (at 161.29 132.08) (uuid f79e8fea-8c94-4698-94a6-cbaffa266463))
  (no_connect (at 166.37 73.66) (uuid 8392edc3-6d74-4e36-8a8e-d14d4c774ee3))
  (no_connect (at 166.37 76.2) (uuid 43fea4e2-cad9-471b-9d74-4fc9463596c8))
  (no_connect (at 166.37 78.74) (uuid b637509a-ce27-464d-bbc6-1987b5119d75))
  (no_connect (at 166.37 81.28) (uuid 5b5dba75-301e-435d-9b83-af74052b6cfa))
  (no_connect (at 166.37 83.82) (uuid f36eb780-5315-41a6-8bcc-b6f2aded64fe))
  (no_connect (at 180.34 63.5) (uuid 6166d559-86f4-4ab2-b419-c606c38d3e85))
  (no_connect (at 180.34 66.04) (uuid f986e648-903a-4861-ba63-ba8172308910))
  (no_connect (at 180.34 68.58) (uuid 7e620ed0-7c4f-4fae-86bd-580f1184f230))
  (no_connect (at 180.34 71.12) (uuid 35edc8e5-26c7-4879-b7a3-70c107c6f40a))
  (no_connect (at 180.34 73.66) (uuid 083be29b-d8d0-4219-9128-f63fc28b9409))
  (no_connect (at 180.34 76.2) (uuid 04dde7f0-cefc-4ea2-8807-db2843ed9204))
  (no_connect (at 180.34 78.74) (uuid 6b709e39-0062-48ad-9b6a-f2a1fb982282))
  (no_connect (at 180.34 81.28) (uuid bb60969b-69f3-4f97-b356-475b9ab18411))
  (no_connect (at 180.34 83.82) (uuid 4d5aaa3f-b866-4ea7-81de-1b7b6c0bac5c))
  (no_connect (at 180.34 86.36) (uuid 049ec3ed-612f-40a0-9b2d-a9d6ab92b705))
  (no_connect (at 180.34 88.9) (uuid 1af5baad-8a01-4b03-8909-dee415082944))
  (no_connect (at 180.34 91.44) (uuid 409b64da-d6c4-4b2a-82bb-5947be44b5ec))
  (no_connect (at 180.34 93.98) (uuid 7546f894-6036-45f3-8c79-39cb50b21b77))
  (no_connect (at 180.34 96.52) (uuid b7305c92-39da-4633-9bed-8f3a7bfcaefc))
  (no_connect (at 180.34 99.06) (uuid f0646c4f-82fe-4965-a00d-1cb4c2b96353))
  (no_connect (at 180.34 101.6) (uuid e89f01b5-8cec-4326-943b-d32cfadd9ac7))
  (no_connect (at 180.34 104.14) (uuid e977a36e-11a7-42a9-8ed5-70fedb331e1d))
  (no_connect (at 180.34 106.68) (uuid a888f145-7845-4e32-8159-72c6b12808a9))
  (no_connect (at 180.34 109.22) (uuid a17dfe99-aec7-4637-910a-8aedb2be5f6a))
  (no_connect (at 180.34 111.76) (uuid 09ebf796-cc08-4c5c-a64f-af1ee14937f7))
  (no_connect (at 180.34 114.3) (uuid 528e6de6-2564-47a7-9bb6-29e880088498))
  (no_connect (at 180.34 116.84) (uuid 18a6589f-6ea0-4b6f-8c9d-961a07713fbd))
  (no_connect (at 180.34 119.38) (uuid 930e4596-d8bb-448c-a36c-a4217abcd867))
  (no_connect (at 180.34 121.92) (uuid 01821e80-8ca8-4997-a33e-68649a3538c7))
  (no_connect (at 194.31 63.5) (uuid 2f8b0435-3b2f-4f58-83c8-8b20cf4e24ce))
  (no_connect (at 194.31 66.04) (uuid a79899a7-3e15-41c9-afe4-3c2045010445))
  (no_connect (at 194.31 68.58) (uuid 8e072c25-2f14-4524-bb23-20a22e4d8c79))
  (no_connect (at 194.31 71.12) (uuid 4cf340a7-2ad3-4db9-8baf-4db557cce17c))
  (no_connect (at 194.31 73.66) (uuid c81e6730-ff02-4bd2-a2f1-d5516cf7d030))
  (no_connect (at 194.31 76.2) (uuid 4297bb0f-7feb-4812-a77b-e3725ee7de90))
  (no_connect (at 194.31 78.74) (uuid df185cb7-8cfb-47cc-986b-b8d3a0cb4ef9))
  (no_connect (at 194.31 81.28) (uuid 46715bcc-b243-4899-b085-4dc956795f13))
  (no_connect (at 194.31 83.82) (uuid 07aba478-11e9-48b5-b46e-a7796968a218))
  (no_connect (at 194.31 86.36) (uuid 0f0d8635-60a9-4aca-b63f-adc04ef70070))
  (no_connect (at 194.31 88.9) (uuid e59fb984-6114-40cc-bb3b-af3433e433d7))
  (no_connect (at 194.31 91.44) (uuid 177edd29-dbee-42a7-9ffb-708ebfef769a))
  (no_connect (at 194.31 93.98) (uuid b286178c-5b5c-4354-a699-a879bc429e4a))
  (no_connect (at 194.31 96.52) (uuid dace72f7-80ff-421a-b304-454c59dd1c46))
  (no_connect (at 194.31 99.06) (uuid 3951403d-71b5-4844-abf4-d4d62fecb976))
  (no_connect (at 194.31 101.6) (uuid b9060597-9382-4942-8b4d-175f52af2023))
  (no_connect (at 194.31 104.14) (uuid af08a693-5ebe-427c-b930-4e6cc834028f))
  (no_connect (at 194.31 106.68) (uuid 8bcbe75d-26c9-4f0e-9b53-a76154647784))
  (no_connect (at 194.31 109.22) (uuid 7876a9ae-92a9-4338-8646-770f424444c9))
  (no_connect (at 194.31 111.76) (uuid e1b6c8c2-d70c-4990-82f2-a6f6cbabbedb))
  (no_connect (at 194.31 114.3) (uuid 0e1b4145-10e3-4881-a0cd-305fe9483dca))
  (no_connect (at 194.31 116.84) (uuid c9e9b538-19a5-4594-af6f-6c239f838b77))
  (no_connect (at 194.31 119.38) (uuid 4b5c847f-38fa-4fed-b1ae-be7e8dbe8eed))
  (no_connect (at 194.31 121.92) (uuid 0c0aaea2-ec9f-4b70-b533-8d605f336817))
  (no_connect (at 215.9 63.5) (uuid 1232fabf-3e58-418a-8011-5ba9cbd86a25))
  (no_connect (at 215.9 66.04) (uuid 49782a9f-08ce-4de0-b9cf-64960cadc381))
  (no_connect (at 215.9 68.58) (uuid 586afd5a-9cd4-4ead-bc4b-4530889bf7fa))
  (no_connect (at 215.9 71.12) (uuid 673188c1-fade-405e-b744-5609810c5e98))
  (no_connect (at 215.9 73.66) (uuid 662d4114-4bd0-488c-8e51-e95d77533e33))
  (no_connect (at 215.9 76.2) (uuid b2d3060d-4fbf-438f-888a-7f3a47ac7a76))
  (no_connect (at 215.9 78.74) (uuid 26ebff2d-2134-4b1e-a75f-32cc124748bd))
  (no_connect (at 215.9 81.28) (uuid a7ea45aa-f788-42d1-9e6a-38f75e30e8bf))
  (no_connect (at 215.9 97.79) (uuid b55cedb8-b8a9-4b0d-872a-40b26f6739bd))
  (no_connect (at 215.9 100.33) (uuid aff80b81-333b-484a-8d03-00c2c8d1cfd0))
  (no_connect (at 215.9 102.87) (uuid 2ee39bea-8f43-4f4e-b806-28c56157c18b))
  (no_connect (at 215.9 105.41) (uuid 20120a29-d105-4143-8669-fc152a197ba0))
  (no_connect (at 215.9 107.95) (uuid 30e734d0-c4f8-441e-a0ec-c64fcdd59d78))
  (no_connect (at 215.9 110.49) (uuid 34f6e877-f4b1-4a8e-8d2f-8b2cba8aad49))
  (no_connect (at 215.9 113.03) (uuid 50f739dd-7cc0-4687-9fb9-9609a1b49bf2))
  (no_connect (at 215.9 115.57) (uuid d5cb9e56-e9c4-4cd0-a076-932a9088df5d))
  (no_connect (at 243.84 63.5) (uuid 0f0a6248-bd05-40ea-a3cc-25a577992b50))
  (no_connect (at 243.84 66.04) (uuid 138ee959-69b2-46ac-a573-7a492ee3d376))
  (no_connect (at 243.84 68.58) (uuid 7c908160-c39f-43dc-aa9d-cdc3c7e4f80b))
  (no_connect (at 243.84 71.12) (uuid 8641278b-a98e-4dd4-ade0-55a00b834d80))
  (no_connect (at 243.84 73.66) (uuid be9100cc-f183-4671-a486-b781052f6090))
  (no_connect (at 243.84 76.2) (uuid f759ca78-3f95-4552-a257-889c9f7ec1ec))
  (no_connect (at 243.84 78.74) (uuid 096380d9-5584-4833-80eb-8fe26b91f337))
  (no_connect (at 243.84 81.28) (uuid 74e49d13-56ad-4fb3-9dd6-bb764944f939))
  (no_connect (at 243.84 97.79) (uuid ebb39c9e-bd75-433f-bd07-7bfe5e3c5546))
  (no_connect (at 243.84 100.33) (uuid 12c85e20-5313-4b56-b83d-a86c3b04a33f))
  (no_connect (at 243.84 102.87) (uuid 3a4ef936-3f5b-4bad-96f4-15aed422b311))
  (no_connect (at 243.84 105.41) (uuid 4034ffa9-364e-47c9-84ba-3b7f9d18b825))
  (no_connect (at 243.84 107.95) (uuid c8883d72-333f-43f3-8512-39f25c72e313))
  (no_connect (at 243.84 110.49) (uuid 4497d2ad-e65c-4bee-99ad-0e0ef469851c))
  (no_connect (at 243.84 113.03) (uuid 02fe4b4e-ffad-43f5-ab93-44996b98373e))
  (no_connect (at 243.84 115.57) (uuid 0378386d-40d4-4538-a5ec-d467c23253e4))

  (symbol (lib_id "Connector:Conn_01x05_Male") (at 156.21 127 270) (unit 1)
    (in_bom no) (on_board no)
    (uuid 00000000-0000-0000-0000-000061286ba5)
    (property "Reference" "B4" (id 0) (at 154.94 139.7 90))
    (property "Value" "Conn_01x05_Male" (id 1) (at 156.21 137.16 90))
    (property "Footprint" "Connector_JST:JST_XH_B5B-XH-A_1x05_P2.50mm_Vertical" (id 2) (at 156.21 127 0)
      (effects (font (size 1.27 1.27)) hide)
    )
    (property "Datasheet" "~" (id 3) (at 156.21 127 0)
      (effects (font (size 1.27 1.27)) hide)
    )
    (property "Distrelec PN" "300-93-646" (id 4) (at 156.21 127 0)
      (effects (font (size 1.27 1.27)) hide)
    )
    (property "Distrelec Price" "0.097145" (id 5) (at 156.21 127 0)
      (effects (font (size 1.27 1.27)) hide)
    )
    (property "LCSC" "N/A" (id 6) (at 156.21 127 0)
      (effects (font (size 1.27 1.27)) hide)
    )
    (property "Package" "N/A" (id 7) (at 156.21 127 0)
      (effects (font (size 1.27 1.27)) hide)
    )
    (pin "1" (uuid 7269ba28-de33-42fb-bbbe-e88875e9ef2b))
    (pin "2" (uuid 8717504f-1fcd-4e0b-a79f-a86603f74c2e))
    (pin "3" (uuid 4d2dcc0d-652b-4572-802f-522c2baa7650))
    (pin "4" (uuid 7b4a514a-34c8-43e4-b6eb-a998622eb719))
    (pin "5" (uuid 8072957c-af43-4c15-ae7a-b6c4a155f240))
  )

  (symbol (lib_id "Connector:Conn_01x05_Male") (at 161.29 78.74 0) (unit 1)
    (in_bom no) (on_board no)
    (uuid 00000000-0000-0000-0000-00006128376e)
    (property "Reference" "B5" (id 0) (at 164.0332 69.0626 0))
    (property "Value" "Conn_01x05_Male" (id 1) (at 164.0332 71.374 0))
    (property "Footprint" "Connector_JST:JST_XH_B5B-XH-A_1x05_P2.50mm_Vertical" (id 2) (at 161.29 78.74 0)
      (effects (font (size 1.27 1.27)) hide)
    )
    (property "Datasheet" "~" (id 3) (at 161.29 78.74 0)
      (effects (font (size 1.27 1.27)) hide)
    )
    (property "Distrelec PN" "300-93-646" (id 4) (at 161.29 78.74 0)
      (effects (font (size 1.27 1.27)) hide)
    )
    (property "Distrelec Price" "0.097145" (id 5) (at 161.29 78.74 0)
      (effects (font (size 1.27 1.27)) hide)
    )
    (property "LCSC" "N/A" (id 6) (at 161.29 78.74 0)
      (effects (font (size 1.27 1.27)) hide)
    )
    (property "Package" "N/A" (id 7) (at 161.29 78.74 0)
      (effects (font (size 1.27 1.27)) hide)
    )
    (pin "1" (uuid 99d77e91-f3a7-479e-8007-1ed4d51ab3f6))
    (pin "2" (uuid 580a4bb6-e4f2-482d-afda-e8a21bd0a0e2))
    (pin "3" (uuid 0747d8ed-4e3b-4c28-a940-296b79a20440))
    (pin "4" (uuid 5a43da4d-d411-4604-a40e-a89bf42c868f))
    (pin "5" (uuid c3cee20b-7c9f-45c3-9b3e-1aac18534c51))
  )

  (symbol (lib_id "Connector:Conn_01x05_Female") (at 142.24 78.74 0) (mirror y) (unit 1)
    (in_bom no) (on_board no)
    (uuid 00000000-0000-0000-0000-0000612a02de)
    (property "Reference" "A4" (id 0) (at 144.9832 68.961 0))
    (property "Value" "Conn_01x05_Female" (id 1) (at 144.9832 71.2724 0))
    (property "Footprint" "Connector_JST:JST_XH_B5B-XH-A_1x05_P2.50mm_Vertical" (id 2) (at 142.24 78.74 0)
      (effects (font (size 1.27 1.27)) hide)
    )
    (property "Datasheet" "~" (id 3) (at 142.24 78.74 0)
      (effects (font (size 1.27 1.27)) hide)
    )
    (property "Distrelec PN" "300-93-665" (id 4) (at 142.24 78.74 0)
      (effects (font (size 1.27 1.27)) hide)
    )
    (property "Distrelec Price" "1.18" (id 5) (at 142.24 78.74 0)
      (effects (font (size 1.27 1.27)) hide)
    )
    (property "LCSC" "N/A" (id 6) (at 142.24 78.74 0)
      (effects (font (size 1.27 1.27)) hide)
    )
    (property "Package" "N/A" (id 7) (at 142.24 78.74 0)
      (effects (font (size 1.27 1.27)) hide)
    )
    (pin "1" (uuid b5dc5ac1-868e-48d6-86bc-c9b6f1897841))
    (pin "2" (uuid c625f4c5-42d5-43ac-8ed9-4cddddebebcc))
    (pin "3" (uuid 0bfe22cf-d157-4590-8da3-dd859804801e))
    (pin "4" (uuid 1329e601-b71d-4337-81ad-69d3bb6d4b9c))
    (pin "5" (uuid 5273702c-074c-4757-80f6-d17e84455352))
  )

  (symbol (lib_id "Connector:Conn_01x05_Female") (at 156.21 118.11 270) (unit 1)
    (in_bom no) (on_board no)
    (uuid 00000000-0000-0000-0000-00006129f2c2)
    (property "Reference" "A5" (id 0) (at 153.67 107.95 90)
      (effects (font (size 1.27 1.27)) (justify left))
    )
    (property "Value" "Conn_01x05_Female" (id 1) (at 148.59 110.49 90)
      (effects (font (size 1.27 1.27)) (justify left))
    )
    (property "Footprint" "Connector_JST:JST_XH_B5B-XH-A_1x05_P2.50mm_Vertical" (id 2) (at 156.21 118.11 0)
      (effects (font (size 1.27 1.27)) hide)
    )
    (property "Datasheet" "~" (id 3) (at 156.21 118.11 0)
      (effects (font (size 1.27 1.27)) hide)
    )
    (property "Distrelec PN" "300-93-665" (id 4) (at 156.21 118.11 0)
      (effects (font (size 1.27 1.27)) hide)
    )
    (property "Distrelec Price" "1.18" (id 5) (at 156.21 118.11 0)
      (effects (font (size 1.27 1.27)) hide)
    )
    (property "LCSC" "N/A" (id 6) (at 156.21 118.11 0)
      (effects (font (size 1.27 1.27)) hide)
    )
    (property "Package" "N/A" (id 7) (at 156.21 118.11 0)
      (effects (font (size 1.27 1.27)) hide)
    )
    (pin "1" (uuid d16b0ece-a693-478e-bbc6-c6387f077a27))
    (pin "2" (uuid 5d1847c6-893f-4473-9231-66759f03664c))
    (pin "3" (uuid 3f584e1f-6f97-490e-a734-1c25afc60b87))
    (pin "4" (uuid 55acb446-94d8-4fd5-b7dd-eec7bdd799af))
    (pin "5" (uuid a70bd135-c243-43ae-bccc-62aad60b65f7))
  )

  (symbol (lib_id "Connector:Conn_01x06_Male") (at 74.93 68.58 0) (unit 1)
    (in_bom no) (on_board no)
    (uuid 00000000-0000-0000-0000-000061292258)
    (property "Reference" "B1" (id 0) (at 77.47 57.15 0))
    (property "Value" "Conn_01x06_Male" (id 1) (at 77.47 59.69 0))
    (property "Footprint" "Connector_JST:JST_XH_B6B-XH-A_1x06_P2.50mm_Vertical" (id 2) (at 74.93 68.58 0)
      (effects (font (size 1.27 1.27)) hide)
    )
    (property "Datasheet" "~" (id 3) (at 74.93 68.58 0)
      (effects (font (size 1.27 1.27)) hide)
    )
    (property "Distrelec PN" "300-93-647" (id 4) (at 74.93 68.58 0)
      (effects (font (size 1.27 1.27)) hide)
    )
    (property "Distrelec Price" "0.122347" (id 5) (at 74.93 68.58 0)
      (effects (font (size 1.27 1.27)) hide)
    )
    (property "LCSC" "N/A" (id 6) (at 74.93 68.58 0)
      (effects (font (size 1.27 1.27)) hide)
    )
    (property "Package" "N/A" (id 7) (at 74.93 68.58 0)
      (effects (font (size 1.27 1.27)) hide)
    )
    (pin "1" (uuid 031fe73c-37c6-4c8b-9012-afc9caa23aa9))
    (pin "2" (uuid 25be52fa-336c-43f0-8ca2-2a4255603476))
    (pin "3" (uuid a09e156f-ce0b-49d1-ac22-421cf956c970))
    (pin "4" (uuid f833e6bf-54d1-405b-bb7e-0321c33213d3))
    (pin "5" (uuid 2a0bd735-9970-4634-98fe-e5f5c1818422))
    (pin "6" (uuid 5859f792-c53b-4f68-a1f7-9c6df207c0d0))
  )

  (symbol (lib_id "Connector:Conn_01x06_Male") (at 74.93 102.87 0) (unit 1)
    (in_bom no) (on_board no)
    (uuid 00000000-0000-0000-0000-000061293328)
    (property "Reference" "B2" (id 0) (at 77.47 91.44 0))
    (property "Value" "Conn_01x06_Male" (id 1) (at 77.47 93.98 0))
    (property "Footprint" "Connector_JST:JST_XH_B6B-XH-A_1x06_P2.50mm_Vertical" (id 2) (at 74.93 102.87 0)
      (effects (font (size 1.27 1.27)) hide)
    )
    (property "Datasheet" "~" (id 3) (at 74.93 102.87 0)
      (effects (font (size 1.27 1.27)) hide)
    )
    (property "Distrelec PN" "300-93-647" (id 4) (at 74.93 102.87 0)
      (effects (font (size 1.27 1.27)) hide)
    )
    (property "Distrelec Price" "0.122347" (id 5) (at 74.93 102.87 0)
      (effects (font (size 1.27 1.27)) hide)
    )
    (property "LCSC" "N/A" (id 6) (at 74.93 102.87 0)
      (effects (font (size 1.27 1.27)) hide)
    )
    (property "Package" "N/A" (id 7) (at 74.93 102.87 0)
      (effects (font (size 1.27 1.27)) hide)
    )
    (pin "1" (uuid e24fd021-7fa1-4c1b-8398-d666c3a62bfc))
    (pin "2" (uuid 54774612-03f9-4521-bc14-f11be30df313))
    (pin "3" (uuid ff091744-3614-49fe-b7cb-26577fb52fd3))
    (pin "4" (uuid 90807f2a-8055-4df4-b82d-fb25bd545ba5))
    (pin "5" (uuid a498e029-2374-487b-a3a5-0afec216ff6f))
    (pin "6" (uuid 1cacb991-4f6a-4356-9b20-bade2f629417))
  )

  (symbol (lib_id "Connector:Conn_01x06_Female") (at 54.61 68.58 0) (mirror y) (unit 1)
    (in_bom no) (on_board no)
    (uuid 00000000-0000-0000-0000-0000612b0f1e)
    (property "Reference" "A1" (id 0) (at 57.15 57.15 0))
    (property "Value" "Conn_01x06_Female" (id 1) (at 57.15 59.69 0))
    (property "Footprint" "Connector_JST:JST_XH_B6B-XH-A_1x06_P2.50mm_Vertical" (id 2) (at 54.61 68.58 0)
      (effects (font (size 1.27 1.27)) hide)
    )
    (property "Datasheet" "~" (id 3) (at 54.61 68.58 0)
      (effects (font (size 1.27 1.27)) hide)
    )
    (property "Distrelec PN" "300-93-666" (id 4) (at 54.61 68.58 0)
      (effects (font (size 1.27 1.27)) hide)
    )
    (property "Distrelec Price" "1.07" (id 5) (at 54.61 68.58 0)
      (effects (font (size 1.27 1.27)) hide)
    )
    (property "LCSC" "N/A" (id 6) (at 54.61 68.58 0)
      (effects (font (size 1.27 1.27)) hide)
    )
    (property "Package" "N/A" (id 7) (at 54.61 68.58 0)
      (effects (font (size 1.27 1.27)) hide)
    )
    (pin "1" (uuid f875ca77-59d8-4459-ab2e-f391655836ae))
    (pin "2" (uuid 079433ae-3482-4661-9d09-d4d3347bf856))
    (pin "3" (uuid d050bf9a-15b1-4632-907d-708cf7d533c9))
    (pin "4" (uuid 2f75daa9-f56a-413f-98c7-7bb69792a98d))
    (pin "5" (uuid d1762ec7-b372-42fd-b1c8-f2187c5e2563))
    (pin "6" (uuid 3ba3acc9-9ccf-477b-be94-c10d0f76bc73))
  )

  (symbol (lib_id "Connector:Conn_01x06_Female") (at 54.61 102.87 0) (mirror y) (unit 1)
    (in_bom no) (on_board no)
    (uuid 00000000-0000-0000-0000-0000612b1e2a)
    (property "Reference" "A2" (id 0) (at 57.15 91.44 0))
    (property "Value" "Conn_01x06_Female" (id 1) (at 57.15 93.98 0))
    (property "Footprint" "Connector_JST:JST_XH_B6B-XH-A_1x06_P2.50mm_Vertical" (id 2) (at 54.61 102.87 0)
      (effects (font (size 1.27 1.27)) hide)
    )
    (property "Datasheet" "~" (id 3) (at 54.61 102.87 0)
      (effects (font (size 1.27 1.27)) hide)
    )
    (property "Distrelec PN" "300-93-666" (id 4) (at 54.61 102.87 0)
      (effects (font (size 1.27 1.27)) hide)
    )
    (property "Distrelec Price" "1.07" (id 5) (at 54.61 102.87 0)
      (effects (font (size 1.27 1.27)) hide)
    )
    (property "LCSC" "N/A" (id 6) (at 54.61 102.87 0)
      (effects (font (size 1.27 1.27)) hide)
    )
    (property "Package" "N/A" (id 7) (at 54.61 102.87 0)
      (effects (font (size 1.27 1.27)) hide)
    )
    (pin "1" (uuid ed3da032-9d23-4d80-a6bb-0c390aa63b64))
    (pin "2" (uuid bd39541d-8156-4b42-8bdd-e5f0a69e3709))
    (pin "3" (uuid da66d8c1-ea99-425c-b149-37ca704d4a36))
    (pin "4" (uuid 8d1bad2e-e799-4e7d-ac1e-21ae66a00b4b))
    (pin "5" (uuid 1054ca88-1264-418a-974a-e1d05e5e972f))
    (pin "6" (uuid dd4ac7aa-d1ed-4f6b-b347-22e71f641f6c))
  )

  (symbol (lib_id "Connector:Conn_01x08_Male") (at 238.76 71.12 0) (unit 1)
    (in_bom no) (on_board no)
    (uuid 00000000-0000-0000-0000-000061295168)
    (property "Reference" "B7" (id 0) (at 241.5032 58.9026 0))
    (property "Value" "Conn_01x08_Male" (id 1) (at 241.5032 61.214 0))
    (property "Footprint" "Connector_JST:JST_XH_B8B-XH-A_1x08_P2.50mm_Vertical" (id 2) (at 238.76 71.12 0)
      (effects (font (size 1.27 1.27)) hide)
    )
    (property "Datasheet" "~" (id 3) (at 238.76 71.12 0)
      (effects (font (size 1.27 1.27)) hide)
    )
    (property "Distrelec PN" "300-93-649" (id 4) (at 238.76 71.12 0)
      (effects (font (size 1.27 1.27)) hide)
    )
    (property "Distrelec Price" "0.516206" (id 5) (at 238.76 71.12 0)
      (effects (font (size 1.27 1.27)) hide)
    )
    (property "LCSC" "N/A" (id 6) (at 238.76 71.12 0)
      (effects (font (size 1.27 1.27)) hide)
    )
    (property "Package" "N/A" (id 7) (at 238.76 71.12 0)
      (effects (font (size 1.27 1.27)) hide)
    )
    (pin "1" (uuid 5496d95f-fd3a-44b6-bd41-3ca1b0f3f9f2))
    (pin "2" (uuid 9fcee501-d7a4-4b2b-af3a-950095eeb6ed))
    (pin "3" (uuid f779a5ea-fea6-4db0-9ff5-ab2d860dbc4a))
    (pin "4" (uuid dd54115b-672c-4f7e-9af6-56f31ecbbc0e))
    (pin "5" (uuid c1ca508a-c2f2-44c4-8764-b19f1bbda5cc))
    (pin "6" (uuid a90bfb11-28bf-4dac-89e2-79ed1f12ab70))
    (pin "7" (uuid 9070a0f6-ca30-43a9-8135-30bc5c28b039))
    (pin "8" (uuid dc850374-8101-4984-9bdc-6f96b792a3e6))
  )

  (symbol (lib_id "Connector:Conn_01x08_Male") (at 238.76 105.41 0) (unit 1)
    (in_bom no) (on_board no)
    (uuid 00000000-0000-0000-0000-000061296929)
    (property "Reference" "B8" (id 0) (at 241.3 90.17 0))
    (property "Value" "Conn_01x08_Male" (id 1) (at 241.3 92.71 0))
    (property "Footprint" "Connector_JST:JST_XH_B8B-XH-A_1x08_P2.50mm_Vertical" (id 2) (at 238.76 105.41 0)
      (effects (font (size 1.27 1.27)) hide)
    )
    (property "Datasheet" "~" (id 3) (at 238.76 105.41 0)
      (effects (font (size 1.27 1.27)) hide)
    )
    (property "Distrelec PN" "300-93-649" (id 4) (at 238.76 105.41 0)
      (effects (font (size 1.27 1.27)) hide)
    )
    (property "Distrelec Price" "0.516206" (id 5) (at 238.76 105.41 0)
      (effects (font (size 1.27 1.27)) hide)
    )
    (property "LCSC" "N/A" (id 6) (at 238.76 105.41 0)
      (effects (font (size 1.27 1.27)) hide)
    )
    (property "Package" "N/A" (id 7) (at 238.76 105.41 0)
      (effects (font (size 1.27 1.27)) hide)
    )
    (pin "1" (uuid e00b2d39-6499-465f-9727-414439477810))
    (pin "2" (uuid dc75f3b7-aa62-486f-937d-934c021297ad))
    (pin "3" (uuid fcc972ff-dc45-4f12-8173-dd1d9c853c09))
    (pin "4" (uuid 81f83caf-b78a-4fa0-ae5e-1ed05e6883a9))
    (pin "5" (uuid c6b6e866-75a8-49d6-b03f-6fef74455ef8))
    (pin "6" (uuid d3d90bce-153b-4694-9276-9681df2bcebe))
    (pin "7" (uuid 152cc99c-d33e-496e-a369-f3b57fe5a889))
    (pin "8" (uuid f4430c8b-37b3-4091-b2e3-621574854bb7))
  )

  (symbol (lib_id "Connector:Conn_01x08_Female") (at 220.98 71.12 0) (unit 1)
    (in_bom no) (on_board no)
    (uuid 00000000-0000-0000-0000-0000612b355e)
    (property "Reference" "A7" (id 0) (at 218.2368 58.801 0))
    (property "Value" "Conn_01x08_Female" (id 1) (at 218.2368 61.1124 0))
    (property "Footprint" "Connector_JST:JST_XH_B8B-XH-A_1x08_P2.50mm_Vertical" (id 2) (at 220.98 71.12 0)
      (effects (font (size 1.27 1.27)) hide)
    )
    (property "Datasheet" "~" (id 3) (at 220.98 71.12 0)
      (effects (font (size 1.27 1.27)) hide)
    )
    (property "Distrelec PN" "300-93-668" (id 4) (at 220.98 71.12 0)
      (effects (font (size 1.27 1.27)) hide)
    )
    (property "Distrelec Price" "1.40" (id 5) (at 220.98 71.12 0)
      (effects (font (size 1.27 1.27)) hide)
    )
    (property "LCSC" "N/A" (id 6) (at 220.98 71.12 0)
      (effects (font (size 1.27 1.27)) hide)
    )
    (property "Package" "N/A" (id 7) (at 220.98 71.12 0)
      (effects (font (size 1.27 1.27)) hide)
    )
    (pin "1" (uuid 21d1c377-0f02-4ba0-b53d-24a6831ec7d2))
    (pin "2" (uuid f8259ea8-bf06-4ea8-919c-be957cc51f2b))
    (pin "3" (uuid 0132f06e-eec1-4b6f-8693-05b8d6937630))
    (pin "4" (uuid 7826ae4f-a9d0-4c3c-a834-9c01b6f7529c))
    (pin "5" (uuid 19dfc210-1cd8-4534-96bf-217c81210099))
    (pin "6" (uuid 1e6f3474-2a3d-4638-bfe6-319f992234c5))
    (pin "7" (uuid d643692f-9e9f-4e83-96bc-47fbfee14eb3))
    (pin "8" (uuid a89da533-7cd6-4bf3-8a1f-36aecb38b431))
  )

  (symbol (lib_id "Connector:Conn_01x08_Female") (at 220.98 105.41 0) (unit 1)
    (in_bom no) (on_board no)
    (uuid 00000000-0000-0000-0000-0000612b47eb)
    (property "Reference" "A8" (id 0) (at 217.17 90.17 0)
      (effects (font (size 1.27 1.27)) (justify left))
    )
    (property "Value" "Conn_01x08_Female" (id 1) (at 210.82 92.71 0)
      (effects (font (size 1.27 1.27)) (justify left))
    )
    (property "Footprint" "Connector_JST:JST_XH_B8B-XH-A_1x08_P2.50mm_Vertical" (id 2) (at 220.98 105.41 0)
      (effects (font (size 1.27 1.27)) hide)
    )
    (property "Datasheet" "~" (id 3) (at 220.98 105.41 0)
      (effects (font (size 1.27 1.27)) hide)
    )
    (property "Distrelec PN" "300-93-668" (id 4) (at 220.98 105.41 0)
      (effects (font (size 1.27 1.27)) hide)
    )
    (property "Distrelec Price" "1.40" (id 5) (at 220.98 105.41 0)
      (effects (font (size 1.27 1.27)) hide)
    )
    (property "LCSC" "N/A" (id 6) (at 220.98 105.41 0)
      (effects (font (size 1.27 1.27)) hide)
    )
    (property "Package" "N/A" (id 7) (at 220.98 105.41 0)
      (effects (font (size 1.27 1.27)) hide)
    )
    (pin "1" (uuid ddd60a2b-1775-451d-ac19-819677f4e63f))
    (pin "2" (uuid 7256a938-3118-4e6b-a11a-f58ed5dee587))
    (pin "3" (uuid 2def7b8d-f22c-4341-8d94-2f2aafc63db2))
    (pin "4" (uuid c3301f81-6b7e-4542-b03b-07b988cf0783))
    (pin "5" (uuid 86bf4c17-f46d-47e0-af43-c0e2d5bc2443))
    (pin "6" (uuid 08fa3695-1051-4583-9982-e1e5cc311753))
    (pin "7" (uuid 92c61198-e80b-459b-a7e5-8fbd24ac6e70))
    (pin "8" (uuid 4454e19a-e193-445e-a3e7-705c90ac02c9))
  )

  (symbol (lib_id "Connector:Conn_01x24_Male") (at 120.65 91.44 0) (unit 1)
    (in_bom no) (on_board no)
    (uuid 00000000-0000-0000-0000-00006128ace7)
    (property "Reference" "B3" (id 0) (at 130.81 57.15 0))
    (property "Value" "Conn_01x24_Male" (id 1) (at 132.08 59.69 0))
    (property "Footprint" "Connector_PinHeader_1.00mm:PinHeader_1x24_P1.00mm_Horizontal" (id 2) (at 120.65 91.44 0)
      (effects (font (size 1.27 1.27)) hide)
    )
    (property "Datasheet" "~" (id 3) (at 120.65 91.44 0)
      (effects (font (size 1.27 1.27)) hide)
    )
    (property "Distrelec PN" "300-24-547" (id 4) (at 120.65 91.44 0)
      (effects (font (size 1.27 1.27)) hide)
    )
    (property "Distrelec Price" "1.72" (id 5) (at 120.65 91.44 0)
      (effects (font (size 1.27 1.27)) hide)
    )
    (property "LCSC" "N/A" (id 6) (at 120.65 91.44 0)
      (effects (font (size 1.27 1.27)) hide)
    )
    (property "Package" "N/A" (id 7) (at 120.65 91.44 0)
      (effects (font (size 1.27 1.27)) hide)
    )
    (pin "1" (uuid bb1ff4aa-2078-4559-bc68-a769bdd599c7))
    (pin "10" (uuid 619a12dc-f1cd-4618-b830-d88e6d147bcd))
    (pin "11" (uuid 5f0a1b81-9282-470b-8146-f8baa6a05aa2))
    (pin "12" (uuid c3b7258d-1793-4d0c-9ca0-3b9ae2d4b82d))
    (pin "13" (uuid a95f6467-2724-470b-9f09-9d770061c854))
    (pin "14" (uuid 1cbcfd2f-5da6-40c5-8b32-31b9ccd9eef0))
    (pin "15" (uuid 053b7e63-be9a-4345-948f-cf80a13612b7))
    (pin "16" (uuid 431d1520-0e8c-44df-9eac-8a1b6ae75e57))
    (pin "17" (uuid f419e5ba-a645-40be-8be9-65fc1e667c23))
    (pin "18" (uuid 0c700b1e-7709-4438-bd9f-c47a0d30dcf6))
    (pin "19" (uuid 2e0c0e46-74c9-4431-b573-c049a67ac981))
    (pin "2" (uuid 70c0d566-bf4b-4b5c-b82b-0ad67ab110a5))
    (pin "20" (uuid 8201d351-8850-44ba-bbc7-1560728782a8))
    (pin "21" (uuid 15d6bf52-e84e-435d-a293-9776439e6946))
    (pin "22" (uuid 2ff9b455-59e0-4b7d-b756-3edbb271c13c))
    (pin "23" (uuid 1ca19fb9-03d3-4ec1-a610-45c835696cf7))
    (pin "24" (uuid 892c7112-118e-4f7e-ad41-329adacd802d))
    (pin "3" (uuid 3e17538d-7883-4b8f-9123-b0a4c562a5cb))
    (pin "4" (uuid 9cdf5ad7-1d23-4530-9cbd-4b4a038f3021))
    (pin "5" (uuid aa60d6fc-9189-4563-b6bc-4689b288dcfd))
    (pin "6" (uuid 38959062-421b-4deb-ba05-3e388ad738a7))
    (pin "7" (uuid 1a17072d-9bc8-4b6e-93c0-897f5b8107f6))
    (pin "8" (uuid f20deec3-73dd-44d7-bc97-49c3aa8d16e7))
    (pin "9" (uuid 825d9809-acf6-446b-8394-7510c0249baf))
  )

  (symbol (lib_id "Connector:Conn_01x24_Male") (at 189.23 91.44 0) (unit 1)
    (in_bom no) (on_board no)
    (uuid 00000000-0000-0000-0000-00006128fc58)
    (property "Reference" "B6" (id 0) (at 191.9732 58.9026 0))
    (property "Value" "Conn_01x24_Male" (id 1) (at 191.9732 61.214 0))
    (property "Footprint" "Connector_PinHeader_1.00mm:PinHeader_1x24_P1.00mm_Horizontal" (id 2) (at 189.23 91.44 0)
      (effects (font (size 1.27 1.27)) hide)
    )
    (property "Datasheet" "~" (id 3) (at 189.23 91.44 0)
      (effects (font (size 1.27 1.27)) hide)
    )
    (property "Distrelec PN" "300-24-547" (id 4) (at 189.23 91.44 0)
      (effects (font (size 1.27 1.27)) hide)
    )
    (property "Distrelec Price" "1.72" (id 5) (at 189.23 91.44 0)
      (effects (font (size 1.27 1.27)) hide)
    )
    (property "LCSC" "N/A" (id 6) (at 189.23 91.44 0)
      (effects (font (size 1.27 1.27)) hide)
    )
    (property "Package" "N/A" (id 7) (at 189.23 91.44 0)
      (effects (font (size 1.27 1.27)) hide)
    )
    (pin "1" (uuid 87b8ef20-f51c-4f0b-8260-8b7e81f74b1f))
    (pin "10" (uuid a8e20734-fc5a-4ce8-bb63-3b2062ea451a))
    (pin "11" (uuid 6ab47cd8-aabd-45d0-92d2-e74baa018630))
    (pin "12" (uuid 9cdb666f-ebdc-4d3a-93d0-f5346ef4c1ac))
    (pin "13" (uuid 552c0081-078c-4103-9e5e-dbe07c0ebe22))
    (pin "14" (uuid e101e61c-547f-450f-b166-b87c9e4ecdfd))
    (pin "15" (uuid a4bff409-9903-42d4-8610-356d5289281b))
    (pin "16" (uuid c6bc07f0-447d-45e2-a1e8-a8527988efac))
    (pin "17" (uuid 5d92d5af-a68b-48c8-8519-56fbd963bc01))
    (pin "18" (uuid 721cba22-8253-476c-bdc3-14492e64b438))
    (pin "19" (uuid 50edfad3-f7c1-465d-b127-1c7826e38975))
    (pin "2" (uuid 5fa62c76-30d3-43af-8c83-8bf883caa77c))
    (pin "20" (uuid d609b457-a9c0-4d41-9a5a-fed2fcdc2579))
    (pin "21" (uuid 1c1154cb-ea03-4747-863e-6b6c22c30991))
    (pin "22" (uuid fa829b74-9b5d-4b76-b389-c9bc37df805f))
    (pin "23" (uuid 2bf385ca-96b3-442e-82ff-c189b1e97f14))
    (pin "24" (uuid e047f80b-8035-4ef2-802e-6812b096b85b))
    (pin "3" (uuid 0f5306df-3af5-4efd-a1cf-7915663a7b71))
    (pin "4" (uuid 2da90246-03c0-4344-942a-7d8710339c35))
    (pin "5" (uuid acc706fa-90a6-4adb-8020-14dff2bd1a1c))
    (pin "6" (uuid 4f55e87f-c1e0-4f67-8253-15d311424dae))
    (pin "7" (uuid cb76b670-cfe9-424c-98b2-e196aab59df8))
    (pin "8" (uuid b38701b6-5d3e-4b33-ba5a-123a66859fdd))
    (pin "9" (uuid edded0f4-d76d-4586-9600-1abe4406685e))
  )

  (symbol (lib_id "Connector:Conn_01x24_Female") (at 109.22 91.44 0) (mirror y) (unit 1)
    (in_bom no) (on_board no)
    (uuid 00000000-0000-0000-0000-00006129a1ba)
    (property "Reference" "A3" (id 0) (at 111.76 57.15 0))
    (property "Value" "Conn_01x24_Female" (id 1) (at 111.76 59.69 0))
    (property "Footprint" "Connector_PinHeader_1.00mm:PinHeader_1x24_P1.00mm_Horizontal" (id 2) (at 109.22 91.44 0)
      (effects (font (size 1.27 1.27)) hide)
    )
    (property "Datasheet" "https://www.distrelec.ch/de/wr-phd-gerade-buchse-leiterplattenbuchse-durchsteckmontage-reihen-24-kontakte-54mm-raster-wuerth-elektronik-61302411821/p/30024929?track=true&no-cache=true&marketingPopup=false" (id 3) (at 109.22 91.44 0)
      (effects (font (size 1.27 1.27)) hide)
    )
    (property "Distrelec PN" "300-24-929" (id 4) (at 109.22 91.44 0)
      (effects (font (size 1.27 1.27)) hide)
    )
    (property "Manufacturer_Name" "Würth Elektronik" (id 5) (at 109.22 91.44 0)
      (effects (font (size 1.27 1.27)) hide)
    )
    (property "Manufacturer_Part_Number" "61302411821" (id 6) (at 109.22 91.44 0)
      (effects (font (size 1.27 1.27)) hide)
    )
    (property "Price" "" (id 7) (at 109.22 91.44 0)
      (effects (font (size 1.27 1.27)) hide)
    )
    (property "Vendor" "Distrelec" (id 8) (at 109.22 91.44 0)
      (effects (font (size 1.27 1.27)) hide)
    )
    (property "Distrelec Price" "1.96" (id 9) (at 109.22 91.44 0)
      (effects (font (size 1.27 1.27)) hide)
    )
    (property "LCSC" "N/A" (id 10) (at 109.22 91.44 0)
      (effects (font (size 1.27 1.27)) hide)
    )
    (property "Package" "N/A" (id 11) (at 109.22 91.44 0)
      (effects (font (size 1.27 1.27)) hide)
    )
    (pin "1" (uuid b446f0a3-6397-454d-bfcc-fd097a6bad6c))
    (pin "10" (uuid e9931695-c596-4b55-add4-fadebf4ee8ee))
    (pin "11" (uuid 3423f864-d534-4008-a438-a124092c875c))
    (pin "12" (uuid 25ca4303-664c-434f-9a9e-2c6c64839161))
    (pin "13" (uuid fc5a5906-e04d-4485-852b-0039215ecdd4))
    (pin "14" (uuid abc73b4c-f3d0-4e15-9eed-fa2a60763283))
    (pin "15" (uuid 6eb36dce-a362-4239-b361-3a6c37d8d561))
    (pin "16" (uuid d71be7a8-65d9-4bb6-9fe3-ea5fd3297be8))
    (pin "17" (uuid 014c3f99-9417-4c29-ab47-4f8cba8421fa))
    (pin "18" (uuid 550fe14f-90fe-41a7-b6b3-e41f0a212471))
    (pin "19" (uuid 363f47af-5a56-4c4a-badf-5cdddf22cea0))
    (pin "2" (uuid 78e872a7-d60c-423b-8ea7-176071b32d58))
    (pin "20" (uuid b2260c41-e242-4be2-9ba2-29d9253a9bec))
    (pin "21" (uuid 56ff082c-29b3-41ab-9dce-0a8fdf36df1d))
    (pin "22" (uuid 87e725c5-0ec9-4561-afb8-e8d18b2a0dcc))
    (pin "23" (uuid 4ccb09b5-d074-45cb-92b4-d946a589b13f))
    (pin "24" (uuid 979c441b-5fdf-4058-bcd6-afd6b63fba5d))
    (pin "3" (uuid 552d9ca3-51b7-44b6-bcb2-a471e8dbb053))
    (pin "4" (uuid 2fe7acf8-30f0-4ee1-9236-0c6c056f4bc1))
    (pin "5" (uuid 3f810c17-99c1-4f34-8285-904807b5719b))
    (pin "6" (uuid 11882671-3c7b-4db2-aed2-d4dc46c06e06))
    (pin "7" (uuid 28f5179b-ff6e-4735-9f08-4c649e15f581))
    (pin "8" (uuid bfc96f01-f18c-4876-8fdd-9be80e94e3df))
    (pin "9" (uuid b9b0527f-77d8-4b02-b449-5e2667874b8c))
  )

  (symbol (lib_id "Connector:Conn_01x24_Female") (at 185.42 91.44 0) (unit 1)
    (in_bom no) (on_board no)
    (uuid 00000000-0000-0000-0000-00006129bf56)
    (property "Reference" "A6" (id 0) (at 182.6768 58.801 0))
    (property "Value" "Conn_01x24_Female" (id 1) (at 182.6768 61.1124 0))
    (property "Footprint" "Connector_PinHeader_1.00mm:PinHeader_1x24_P1.00mm_Horizontal" (id 2) (at 185.42 91.44 0)
      (effects (font (size 1.27 1.27)) hide)
    )
    (property "Datasheet" "https://www.distrelec.ch/de/wr-phd-gerade-buchse-leiterplattenbuchse-durchsteckmontage-reihen-24-kontakte-54mm-raster-wuerth-elektronik-61302411821/p/30024929?track=true&no-cache=true&marketingPopup=false" (id 3) (at 185.42 91.44 0)
      (effects (font (size 1.27 1.27)) hide)
    )
    (property "Distrelec PN" "300-24-929" (id 4) (at 185.42 91.44 0)
      (effects (font (size 1.27 1.27)) hide)
    )
    (property "Manufacturer_Name" "Würth Elektronik" (id 5) (at 185.42 91.44 0)
      (effects (font (size 1.27 1.27)) hide)
    )
    (property "Manufacturer_Part_Number" "61302411821" (id 6) (at 185.42 91.44 0)
      (effects (font (size 1.27 1.27)) hide)
    )
    (property "Vendor" "Distrelec" (id 7) (at 185.42 91.44 0)
      (effects (font (size 1.27 1.27)) hide)
    )
    (property "Distrelec Price" "1.96" (id 8) (at 185.42 91.44 0)
      (effects (font (size 1.27 1.27)) hide)
    )
    (property "LCSC" "N/A" (id 9) (at 185.42 91.44 0)
      (effects (font (size 1.27 1.27)) hide)
    )
    (property "Package" "N/A" (id 10) (at 185.42 91.44 0)
      (effects (font (size 1.27 1.27)) hide)
    )
    (pin "1" (uuid b586e700-00fd-42a0-ab6a-5c435ebbbe7d))
    (pin "10" (uuid 86d64a21-6826-407b-9e37-b1504fbb4cee))
    (pin "11" (uuid c6f16d10-5c77-4cde-9e67-4a9974ea174c))
    (pin "12" (uuid bd4089da-5b95-473e-8d86-080596847aee))
    (pin "13" (uuid dfe36507-836b-4466-9f21-1479e115d90d))
    (pin "14" (uuid dd9f960c-ce5e-433e-be5a-3ddbde28edae))
    (pin "15" (uuid 9c136cf6-3801-487c-bff6-4e1c6477c109))
    (pin "16" (uuid 54d0f35f-a7f3-49b3-97ad-bbf1761072fc))
    (pin "17" (uuid 9e6e531a-8caf-43ad-ace1-f922523a4115))
    (pin "18" (uuid 3a7fc1c6-5960-4bae-99af-070fdddbe3ce))
    (pin "19" (uuid 87eef490-8454-4839-a74d-9be5ee0dd58b))
    (pin "2" (uuid c6dc95d4-45a6-43a9-afce-b400d90e278d))
    (pin "20" (uuid b0b3d33f-7c51-4614-99f5-5baa51f24901))
    (pin "21" (uuid 40303bfd-d255-488f-9755-ed862f27f780))
    (pin "22" (uuid 6474fee1-f83b-4cab-b8e8-3b4943510671))
    (pin "23" (uuid 141327bf-ba07-4a0e-b047-6e48bdbb9b51))
    (pin "24" (uuid 45c8b76d-2246-49c4-8f43-36b101d62c82))
    (pin "3" (uuid 80374098-8f3a-4337-9c55-80ea4fcf3522))
    (pin "4" (uuid eb7e6bc8-ba5a-4369-9ff0-ad85779fc980))
    (pin "5" (uuid 3f362ff2-5fd5-4457-bc1c-65fcdaf9b286))
    (pin "6" (uuid 550afb05-e049-4bc0-bee5-9b5aa1efa300))
    (pin "7" (uuid 64097f83-6b5d-4d7e-9d8e-f56b04d154e8))
    (pin "8" (uuid e8a24cac-a737-48a3-9d7e-27494faca88c))
    (pin "9" (uuid 5c27543b-efa3-4f40-b029-cbe0000624a4))
  )
)
